pixelArray_tb.vcd
$date
	Mon Oct 25 21:04:32 2021
$end
$version
	Icarus Verilog
$end
$timescale
	1ps
$end
$scope module pixelArray_tb $end
$var wire 1 ! anaReset $end
$var wire 8 " pixData1 [7:0] $end
$var wire 8 # pixData2 [7:0] $end
$var wire 8 $ pixData3 [7:0] $end
$var wire 8 % pixData4 [7:0] $end
$var wire 1 & anaRamp $end
$var wire 1 ' anaBias1 $end
$var reg 1 ( clk $end
$var reg 1 ) convert $end
$var reg 8 * data1 [7:0] $end
$var reg 8 + data2 [7:0] $end
$var reg 8 , data3 [7:0] $end
$var reg 8 - data4 [7:0] $end
$var reg 1 . erase $end
$var reg 1 / expose $end
$var reg 3 0 next_state [2:0] $end
$var reg 8 1 pixelDataOut1 [7:0] $end
$var reg 8 2 pixelDataOut2 [7:0] $end
$var reg 8 3 pixelDataOut3 [7:0] $end
$var reg 8 4 pixelDataOut4 [7:0] $end
$var reg 1 5 read1 $end
$var reg 1 6 read2 $end
$var reg 1 7 read3 $end
$var reg 1 8 read4 $end
$var reg 1 9 reset $end
$var reg 3 : state [2:0] $end
$var integer 32 ; counter [31:0] $end
$scope module pa1 $end
$var wire 1 ' anaBias1 $end
$var wire 1 & anaRamp $end
$var wire 1 ! anaReset $end
$var wire 1 . erase $end
$var wire 1 / expose $end
$var wire 8 < pixData1 [7:0] $end
$var wire 8 = pixData2 [7:0] $end
$var wire 8 > pixData3 [7:0] $end
$var wire 8 ? pixData4 [7:0] $end
$var wire 1 5 read1 $end
$var wire 1 6 read2 $end
$var wire 1 7 read3 $end
$var wire 1 8 read4 $end
$scope module pix1 $end
$var wire 8 @ DATA [7:0] $end
$var wire 1 . ERASE $end
$var wire 1 / EXPOSE $end
$var wire 1 & RAMP $end
$var wire 1 5 READ $end
$var wire 1 ! RESET $end
$var wire 1 ' VBN1 $end
$var reg 1 A cmp $end
$var reg 8 B p_data [7:0] $end
$var real 1 C adc $end
$var real 1 D lsb $end
$var real 1 E tmp $end
$var real 1 F v_erase $end
$upscope $end
$scope module pix2 $end
$var wire 8 G DATA [7:0] $end
$var wire 1 . ERASE $end
$var wire 1 / EXPOSE $end
$var wire 1 & RAMP $end
$var wire 1 6 READ $end
$var wire 1 ! RESET $end
$var wire 1 ' VBN1 $end
$var reg 1 H cmp $end
$var reg 8 I p_data [7:0] $end
$var real 1 J adc $end
$var real 1 K lsb $end
$var real 1 L tmp $end
$var real 1 M v_erase $end
$upscope $end
$scope module pix3 $end
$var wire 8 N DATA [7:0] $end
$var wire 1 . ERASE $end
$var wire 1 / EXPOSE $end
$var wire 1 & RAMP $end
$var wire 1 7 READ $end
$var wire 1 ! RESET $end
$var wire 1 ' VBN1 $end
$var reg 1 O cmp $end
$var reg 8 P p_data [7:0] $end
$var real 1 Q adc $end
$var real 1 R lsb $end
$var real 1 S tmp $end
$var real 1 T v_erase $end
$upscope $end
$scope module pix4 $end
$var wire 8 U DATA [7:0] $end
$var wire 1 . ERASE $end
$var wire 1 / EXPOSE $end
$var wire 1 & RAMP $end
$var wire 1 8 READ $end
$var wire 1 ! RESET $end
$var wire 1 ' VBN1 $end
$var reg 1 V cmp $end
$var reg 8 W p_data [7:0] $end
$var real 1 X adc $end
$var real 1 Y lsb $end
$var real 1 Z tmp $end
$var real 1 [ v_erase $end
$upscope $end
$upscope $end
$upscope $end
$enddefinitions $end
#500000
$dumpvars
r1.2 [
r0 Z
r0.004705882352941176 Y
r0 X
bx W
xV
bx U
r1.2 T
r0 S
r0.004705882352941176 R
r0 Q
bx P
xO
bx N
r1.2 M
r0 L
r0.004705882352941176 K
r0 J
bx I
xH
bx G
r1.2 F
r0 E
r0.004705882352941176 D
r0 C
bx B
xA
bx @
bx ?
bx >
bx =
bx <
b0 ;
b0 :
09
x8
x7
x6
x5
b0 4
b0 3
b0 2
b0 1
b0 0
x/
x.
b0 -
b0 ,
b0 +
b0 *
0)
1(
x'
0&
bx %
bx $
bx #
bx "
1!
$end
#1000000
b0 %
b0 ?
b0 U
b0 $
b0 >
b0 N
b0 #
b0 =
b0 G
b0 "
b0 <
b0 @
0V
b0 W
r1.2 Z
0O
b0 P
r1.2 S
0H
b0 I
r1.2 L
0A
b0 B
r1.2 E
0/
08
07
06
05
1.
0'
0(
#1500000
b1 ;
1(
#2000000
0(
#2500000
b10 ;
1(
#3000000
0(
#3500000
b11 ;
1(
#4000000
0(
#4500000
b100 ;
1(
#5000000
0(
#5500000
b101 ;
1(
#6000000
0(
#6500000
b100 :
b1 0
b110 ;
1(
#7000000
0.
0(
#7500000
b1 :
b0 ;
1(
#8000000
1/
0(
#8500000
r1.197647058823529 Z
r1.197647058823529 S
r1.197647058823529 L
r1.197647058823529 E
b1 ;
1'
1(
#9000000
0'
0(
#9500000
r1.195294117647059 E
r1.195294117647059 L
r1.195294117647059 S
r1.195294117647059 Z
b10 ;
1'
1(
#10000000
0'
0(
#10500000
r1.192941176470588 Z
r1.192941176470588 S
r1.192941176470588 L
r1.192941176470588 E
b11 ;
1'
1(
#11000000
0'
0(
#11500000
r1.190588235294117 E
r1.190588235294117 L
r1.190588235294117 S
r1.190588235294117 Z
b100 ;
1'
1(
#12000000
0'
0(
#12500000
r1.188235294117647 Z
r1.188235294117647 S
r1.188235294117647 L
r1.188235294117647 E
b101 ;
1'
1(
#13000000
0'
0(
#13500000
r1.185882352941176 E
r1.185882352941176 L
r1.185882352941176 S
r1.185882352941176 Z
b110 ;
1'
1(
#14000000
0'
0(
#14500000
r1.183529411764705 Z
r1.183529411764705 S
r1.183529411764705 L
r1.183529411764705 E
b111 ;
1'
1(
#15000000
0'
0(
#15500000
r1.181176470588235 E
r1.181176470588235 L
r1.181176470588235 S
r1.181176470588235 Z
b1000 ;
1'
1(
#16000000
0'
0(
#16500000
r1.178823529411764 Z
r1.178823529411764 S
r1.178823529411764 L
r1.178823529411764 E
b1001 ;
1'
1(
#17000000
0'
0(
#17500000
r1.176470588235293 E
r1.176470588235293 L
r1.176470588235293 S
r1.176470588235293 Z
b1010 ;
1'
1(
#18000000
0'
0(
#18500000
r1.174117647058823 Z
r1.174117647058823 S
r1.174117647058823 L
r1.174117647058823 E
b1011 ;
1'
1(
#19000000
0'
0(
#19500000
r1.171764705882352 E
r1.171764705882352 L
r1.171764705882352 S
r1.171764705882352 Z
b1100 ;
1'
1(
#20000000
0'
0(
#20500000
r1.169411764705881 Z
r1.169411764705881 S
r1.169411764705881 L
r1.169411764705881 E
b1101 ;
1'
1(
#21000000
0'
0(
#21500000
r1.167058823529411 E
r1.167058823529411 L
r1.167058823529411 S
r1.167058823529411 Z
b1110 ;
1'
1(
#22000000
0'
0(
#22500000
r1.16470588235294 Z
r1.16470588235294 S
r1.16470588235294 L
r1.16470588235294 E
b1111 ;
1'
1(
#23000000
0'
0(
#23500000
r1.162352941176469 E
r1.162352941176469 L
r1.162352941176469 S
r1.162352941176469 Z
b10000 ;
1'
1(
#24000000
0'
0(
#24500000
r1.159999999999999 Z
r1.159999999999999 S
r1.159999999999999 L
r1.159999999999999 E
b10001 ;
1'
1(
#25000000
0'
0(
#25500000
r1.157647058823528 E
r1.157647058823528 L
r1.157647058823528 S
r1.157647058823528 Z
b10010 ;
1'
1(
#26000000
0'
0(
#26500000
r1.155294117647057 Z
r1.155294117647057 S
r1.155294117647057 L
r1.155294117647057 E
b10011 ;
1'
1(
#27000000
0'
0(
#27500000
r1.152941176470587 E
r1.152941176470587 L
r1.152941176470587 S
r1.152941176470587 Z
b10100 ;
1'
1(
#28000000
0'
0(
#28500000
r1.150588235294116 Z
r1.150588235294116 S
r1.150588235294116 L
r1.150588235294116 E
b10101 ;
1'
1(
#29000000
0'
0(
#29500000
r1.148235294117645 E
r1.148235294117645 L
r1.148235294117645 S
r1.148235294117645 Z
b10110 ;
1'
1(
#30000000
0'
0(
#30500000
r1.145882352941175 Z
r1.145882352941175 S
r1.145882352941175 L
r1.145882352941175 E
b10111 ;
1'
1(
#31000000
0'
0(
#31500000
r1.143529411764704 E
r1.143529411764704 L
r1.143529411764704 S
r1.143529411764704 Z
b11000 ;
1'
1(
#32000000
0'
0(
#32500000
r1.141176470588233 Z
r1.141176470588233 S
r1.141176470588233 L
r1.141176470588233 E
b11001 ;
1'
1(
#33000000
0'
0(
#33500000
r1.138823529411763 E
r1.138823529411763 L
r1.138823529411763 S
r1.138823529411763 Z
b11010 ;
1'
1(
#34000000
0'
0(
#34500000
r1.136470588235292 Z
r1.136470588235292 S
r1.136470588235292 L
r1.136470588235292 E
b11011 ;
1'
1(
#35000000
0'
0(
#35500000
r1.134117647058821 E
r1.134117647058821 L
r1.134117647058821 S
r1.134117647058821 Z
b11100 ;
1'
1(
#36000000
0'
0(
#36500000
r1.131764705882351 Z
r1.131764705882351 S
r1.131764705882351 L
r1.131764705882351 E
b11101 ;
1'
1(
#37000000
0'
0(
#37500000
r1.12941176470588 E
r1.12941176470588 L
r1.12941176470588 S
r1.12941176470588 Z
b11110 ;
1'
1(
#38000000
0'
0(
#38500000
r1.127058823529409 Z
r1.127058823529409 S
r1.127058823529409 L
r1.127058823529409 E
b11111 ;
1'
1(
#39000000
0'
0(
#39500000
r1.124705882352939 E
r1.124705882352939 L
r1.124705882352939 S
r1.124705882352939 Z
b100000 ;
1'
1(
#40000000
0'
0(
#40500000
r1.122352941176468 Z
r1.122352941176468 S
r1.122352941176468 L
r1.122352941176468 E
b100001 ;
1'
1(
#41000000
0'
0(
#41500000
r1.119999999999997 E
r1.119999999999997 L
r1.119999999999997 S
r1.119999999999997 Z
b100010 ;
1'
1(
#42000000
0'
0(
#42500000
r1.117647058823527 Z
r1.117647058823527 S
r1.117647058823527 L
r1.117647058823527 E
b100011 ;
1'
1(
#43000000
0'
0(
#43500000
r1.115294117647056 E
r1.115294117647056 L
r1.115294117647056 S
r1.115294117647056 Z
b100100 ;
1'
1(
#44000000
0'
0(
#44500000
r1.112941176470585 Z
r1.112941176470585 S
r1.112941176470585 L
r1.112941176470585 E
b100101 ;
1'
1(
#45000000
0'
0(
#45500000
r1.110588235294115 E
r1.110588235294115 L
r1.110588235294115 S
r1.110588235294115 Z
b100110 ;
1'
1(
#46000000
0'
0(
#46500000
r1.108235294117644 Z
r1.108235294117644 S
r1.108235294117644 L
r1.108235294117644 E
b100111 ;
1'
1(
#47000000
0'
0(
#47500000
r1.105882352941173 E
r1.105882352941173 L
r1.105882352941173 S
r1.105882352941173 Z
b101000 ;
1'
1(
#48000000
0'
0(
#48500000
r1.103529411764703 Z
r1.103529411764703 S
r1.103529411764703 L
r1.103529411764703 E
b101001 ;
1'
1(
#49000000
0'
0(
#49500000
r1.101176470588232 E
r1.101176470588232 L
r1.101176470588232 S
r1.101176470588232 Z
b101010 ;
1'
1(
#50000000
0'
0(
#50500000
r1.098823529411761 Z
r1.098823529411761 S
r1.098823529411761 L
r1.098823529411761 E
b101011 ;
1'
1(
#51000000
0'
0(
#51500000
r1.096470588235291 E
r1.096470588235291 L
r1.096470588235291 S
r1.096470588235291 Z
b101100 ;
1'
1(
#52000000
0'
0(
#52500000
r1.09411764705882 Z
r1.09411764705882 S
r1.09411764705882 L
r1.09411764705882 E
b101101 ;
1'
1(
#53000000
0'
0(
#53500000
r1.091764705882349 E
r1.091764705882349 L
r1.091764705882349 S
r1.091764705882349 Z
b101110 ;
1'
1(
#54000000
0'
0(
#54500000
r1.089411764705879 Z
r1.089411764705879 S
r1.089411764705879 L
r1.089411764705879 E
b101111 ;
1'
1(
#55000000
0'
0(
#55500000
r1.087058823529408 E
r1.087058823529408 L
r1.087058823529408 S
r1.087058823529408 Z
b110000 ;
1'
1(
#56000000
0'
0(
#56500000
r1.084705882352937 Z
r1.084705882352937 S
r1.084705882352937 L
r1.084705882352937 E
b110001 ;
1'
1(
#57000000
0'
0(
#57500000
r1.082352941176467 E
r1.082352941176467 L
r1.082352941176467 S
r1.082352941176467 Z
b110010 ;
1'
1(
#58000000
0'
0(
#58500000
r1.079999999999996 Z
r1.079999999999996 S
r1.079999999999996 L
r1.079999999999996 E
b110011 ;
1'
1(
#59000000
0'
0(
#59500000
r1.077647058823525 E
r1.077647058823525 L
r1.077647058823525 S
r1.077647058823525 Z
b110100 ;
1'
1(
#60000000
0'
0(
#60500000
r1.075294117647055 Z
r1.075294117647055 S
r1.075294117647055 L
r1.075294117647055 E
b110101 ;
1'
1(
#61000000
0'
0(
#61500000
r1.072941176470584 E
r1.072941176470584 L
r1.072941176470584 S
r1.072941176470584 Z
b110110 ;
1'
1(
#62000000
0'
0(
#62500000
r1.070588235294113 Z
r1.070588235294113 S
r1.070588235294113 L
r1.070588235294113 E
b110111 ;
1'
1(
#63000000
0'
0(
#63500000
r1.068235294117643 E
r1.068235294117643 L
r1.068235294117643 S
r1.068235294117643 Z
b111000 ;
1'
1(
#64000000
0'
0(
#64500000
r1.065882352941172 Z
r1.065882352941172 S
r1.065882352941172 L
r1.065882352941172 E
b111001 ;
1'
1(
#65000000
0'
0(
#65500000
r1.063529411764701 E
r1.063529411764701 L
r1.063529411764701 S
r1.063529411764701 Z
b111010 ;
1'
1(
#66000000
0'
0(
#66500000
r1.061176470588231 Z
r1.061176470588231 S
r1.061176470588231 L
r1.061176470588231 E
b111011 ;
1'
1(
#67000000
0'
0(
#67500000
r1.05882352941176 E
r1.05882352941176 L
r1.05882352941176 S
r1.05882352941176 Z
b111100 ;
1'
1(
#68000000
0'
0(
#68500000
r1.056470588235289 Z
r1.056470588235289 S
r1.056470588235289 L
r1.056470588235289 E
b111101 ;
1'
1(
#69000000
0'
0(
#69500000
r1.054117647058818 E
r1.054117647058818 L
r1.054117647058818 S
r1.054117647058818 Z
b111110 ;
1'
1(
#70000000
0'
0(
#70500000
r1.051764705882348 Z
r1.051764705882348 S
r1.051764705882348 L
r1.051764705882348 E
b111111 ;
1'
1(
#71000000
0'
0(
#71500000
r1.049411764705877 E
r1.049411764705877 L
r1.049411764705877 S
r1.049411764705877 Z
b1000000 ;
1'
1(
#72000000
0'
0(
#72500000
r1.047058823529406 Z
r1.047058823529406 S
r1.047058823529406 L
r1.047058823529406 E
b1000001 ;
1'
1(
#73000000
0'
0(
#73500000
r1.044705882352936 E
r1.044705882352936 L
r1.044705882352936 S
r1.044705882352936 Z
b1000010 ;
1'
1(
#74000000
0'
0(
#74500000
r1.042352941176465 Z
r1.042352941176465 S
r1.042352941176465 L
r1.042352941176465 E
b1000011 ;
1'
1(
#75000000
0'
0(
#75500000
r1.039999999999994 E
r1.039999999999994 L
r1.039999999999994 S
r1.039999999999994 Z
b1000100 ;
1'
1(
#76000000
0'
0(
#76500000
r1.037647058823524 Z
r1.037647058823524 S
r1.037647058823524 L
r1.037647058823524 E
b1000101 ;
1'
1(
#77000000
0'
0(
#77500000
r1.035294117647053 E
r1.035294117647053 L
r1.035294117647053 S
r1.035294117647053 Z
b1000110 ;
1'
1(
#78000000
0'
0(
#78500000
r1.032941176470582 Z
r1.032941176470582 S
r1.032941176470582 L
r1.032941176470582 E
b1000111 ;
1'
1(
#79000000
0'
0(
#79500000
r1.030588235294112 E
r1.030588235294112 L
r1.030588235294112 S
r1.030588235294112 Z
b1001000 ;
1'
1(
#80000000
0'
0(
#80500000
r1.028235294117641 Z
r1.028235294117641 S
r1.028235294117641 L
r1.028235294117641 E
b1001001 ;
1'
1(
#81000000
0'
0(
#81500000
r1.02588235294117 E
r1.02588235294117 L
r1.02588235294117 S
r1.02588235294117 Z
b1001010 ;
1'
1(
#82000000
0'
0(
#82500000
r1.0235294117647 Z
r1.0235294117647 S
r1.0235294117647 L
r1.0235294117647 E
b1001011 ;
1'
1(
#83000000
0'
0(
#83500000
r1.021176470588229 E
r1.021176470588229 L
r1.021176470588229 S
r1.021176470588229 Z
b1001100 ;
1'
1(
#84000000
0'
0(
#84500000
r1.018823529411758 Z
r1.018823529411758 S
r1.018823529411758 L
r1.018823529411758 E
b1001101 ;
1'
1(
#85000000
0'
0(
#85500000
r1.016470588235288 E
r1.016470588235288 L
r1.016470588235288 S
r1.016470588235288 Z
b1001110 ;
1'
1(
#86000000
0'
0(
#86500000
r1.014117647058817 Z
r1.014117647058817 S
r1.014117647058817 L
r1.014117647058817 E
b1001111 ;
1'
1(
#87000000
0'
0(
#87500000
r1.011764705882346 E
r1.011764705882346 L
r1.011764705882346 S
r1.011764705882346 Z
b1010000 ;
1'
1(
#88000000
0'
0(
#88500000
r1.009411764705876 Z
r1.009411764705876 S
r1.009411764705876 L
r1.009411764705876 E
b1010001 ;
1'
1(
#89000000
0'
0(
#89500000
r1.007058823529405 E
r1.007058823529405 L
r1.007058823529405 S
r1.007058823529405 Z
b1010010 ;
1'
1(
#90000000
0'
0(
#90500000
r1.004705882352934 Z
r1.004705882352934 S
r1.004705882352934 L
r1.004705882352934 E
b1010011 ;
1'
1(
#91000000
0'
0(
#91500000
r1.002352941176464 E
r1.002352941176464 L
r1.002352941176464 S
r1.002352941176464 Z
b1010100 ;
1'
1(
#92000000
0'
0(
#92500000
r0.9999999999999932 Z
r0.9999999999999932 S
r0.9999999999999932 L
r0.9999999999999932 E
b1010101 ;
1'
1(
#93000000
0'
0(
#93500000
r0.9976470588235227 E
r0.9976470588235227 L
r0.9976470588235227 S
r0.9976470588235227 Z
b1010110 ;
1'
1(
#94000000
0'
0(
#94500000
r0.9952941176470521 Z
r0.9952941176470521 S
r0.9952941176470521 L
r0.9952941176470521 E
b1010111 ;
1'
1(
#95000000
0'
0(
#95500000
r0.9929411764705816 E
r0.9929411764705816 L
r0.9929411764705816 S
r0.9929411764705816 Z
b1011000 ;
1'
1(
#96000000
0'
0(
#96500000
r0.990588235294111 Z
r0.990588235294111 S
r0.990588235294111 L
r0.990588235294111 E
b1011001 ;
1'
1(
#97000000
0'
0(
#97500000
r0.9882352941176404 E
r0.9882352941176404 L
r0.9882352941176404 S
r0.9882352941176404 Z
b1011010 ;
1'
1(
#98000000
0'
0(
#98500000
r0.9858823529411699 Z
r0.9858823529411699 S
r0.9858823529411699 L
r0.9858823529411699 E
b1011011 ;
1'
1(
#99000000
0'
0(
#99500000
r0.9835294117646993 E
r0.9835294117646993 L
r0.9835294117646993 S
r0.9835294117646993 Z
b1011100 ;
1'
1(
#100000000
0'
0(
#100500000
r0.9811764705882288 Z
r0.9811764705882288 S
r0.9811764705882288 L
r0.9811764705882288 E
b1011101 ;
1'
1(
#101000000
0'
0(
#101500000
r0.9788235294117582 E
r0.9788235294117582 L
r0.9788235294117582 S
r0.9788235294117582 Z
b1011110 ;
1'
1(
#102000000
0'
0(
#102500000
r0.9764705882352877 Z
r0.9764705882352877 S
r0.9764705882352877 L
r0.9764705882352877 E
b1011111 ;
1'
1(
#103000000
0'
0(
#103500000
r0.9741176470588171 E
r0.9741176470588171 L
r0.9741176470588171 S
r0.9741176470588171 Z
b1100000 ;
1'
1(
#104000000
0'
0(
#104500000
r0.9717647058823465 Z
r0.9717647058823465 S
r0.9717647058823465 L
r0.9717647058823465 E
b1100001 ;
1'
1(
#105000000
0'
0(
#105500000
r0.969411764705876 E
r0.969411764705876 L
r0.969411764705876 S
r0.969411764705876 Z
b1100010 ;
1'
1(
#106000000
0'
0(
#106500000
r0.9670588235294054 Z
r0.9670588235294054 S
r0.9670588235294054 L
r0.9670588235294054 E
b1100011 ;
1'
1(
#107000000
0'
0(
#107500000
r0.9647058823529349 E
r0.9647058823529349 L
r0.9647058823529349 S
r0.9647058823529349 Z
b1100100 ;
1'
1(
#108000000
0'
0(
#108500000
r0.9623529411764643 Z
r0.9623529411764643 S
r0.9623529411764643 L
r0.9623529411764643 E
b1100101 ;
1'
1(
#109000000
0'
0(
#109500000
r0.9599999999999937 E
r0.9599999999999937 L
r0.9599999999999937 S
r0.9599999999999937 Z
b1100110 ;
1'
1(
#110000000
0'
0(
#110500000
r0.9576470588235232 Z
r0.9576470588235232 S
r0.9576470588235232 L
r0.9576470588235232 E
b1100111 ;
1'
1(
#111000000
0'
0(
#111500000
r0.9552941176470526 E
r0.9552941176470526 L
r0.9552941176470526 S
r0.9552941176470526 Z
b1101000 ;
1'
1(
#112000000
0'
0(
#112500000
r0.9529411764705821 Z
r0.9529411764705821 S
r0.9529411764705821 L
r0.9529411764705821 E
b1101001 ;
1'
1(
#113000000
0'
0(
#113500000
r0.9505882352941115 E
r0.9505882352941115 L
r0.9505882352941115 S
r0.9505882352941115 Z
b1101010 ;
1'
1(
#114000000
0'
0(
#114500000
r0.948235294117641 Z
r0.948235294117641 S
r0.948235294117641 L
r0.948235294117641 E
b1101011 ;
1'
1(
#115000000
0'
0(
#115500000
r0.9458823529411704 E
r0.9458823529411704 L
r0.9458823529411704 S
r0.9458823529411704 Z
b1101100 ;
1'
1(
#116000000
0'
0(
#116500000
r0.9435294117646998 Z
r0.9435294117646998 S
r0.9435294117646998 L
r0.9435294117646998 E
b1101101 ;
1'
1(
#117000000
0'
0(
#117500000
r0.9411764705882293 E
r0.9411764705882293 L
r0.9411764705882293 S
r0.9411764705882293 Z
b1101110 ;
1'
1(
#118000000
0'
0(
#118500000
r0.9388235294117587 Z
r0.9388235294117587 S
r0.9388235294117587 L
r0.9388235294117587 E
b1101111 ;
1'
1(
#119000000
0'
0(
#119500000
r0.9364705882352882 E
r0.9364705882352882 L
r0.9364705882352882 S
r0.9364705882352882 Z
b1110000 ;
1'
1(
#120000000
0'
0(
#120500000
r0.9341176470588176 Z
r0.9341176470588176 S
r0.9341176470588176 L
r0.9341176470588176 E
b1110001 ;
1'
1(
#121000000
0'
0(
#121500000
r0.9317647058823471 E
r0.9317647058823471 L
r0.9317647058823471 S
r0.9317647058823471 Z
b1110010 ;
1'
1(
#122000000
0'
0(
#122500000
r0.9294117647058765 Z
r0.9294117647058765 S
r0.9294117647058765 L
r0.9294117647058765 E
b1110011 ;
1'
1(
#123000000
0'
0(
#123500000
r0.9270588235294059 E
r0.9270588235294059 L
r0.9270588235294059 S
r0.9270588235294059 Z
b1110100 ;
1'
1(
#124000000
0'
0(
#124500000
r0.9247058823529354 Z
r0.9247058823529354 S
r0.9247058823529354 L
r0.9247058823529354 E
b1110101 ;
1'
1(
#125000000
0'
0(
#125500000
r0.9223529411764648 E
r0.9223529411764648 L
r0.9223529411764648 S
r0.9223529411764648 Z
b1110110 ;
1'
1(
#126000000
0'
0(
#126500000
r0.9199999999999943 Z
r0.9199999999999943 S
r0.9199999999999943 L
r0.9199999999999943 E
b1110111 ;
1'
1(
#127000000
0'
0(
#127500000
r0.9176470588235237 E
r0.9176470588235237 L
r0.9176470588235237 S
r0.9176470588235237 Z
b1111000 ;
1'
1(
#128000000
0'
0(
#128500000
r0.9152941176470532 Z
r0.9152941176470532 S
r0.9152941176470532 L
r0.9152941176470532 E
b1111001 ;
1'
1(
#129000000
0'
0(
#129500000
r0.9129411764705826 E
r0.9129411764705826 L
r0.9129411764705826 S
r0.9129411764705826 Z
b1111010 ;
1'
1(
#130000000
0'
0(
#130500000
r0.910588235294112 Z
r0.910588235294112 S
r0.910588235294112 L
r0.910588235294112 E
b1111011 ;
1'
1(
#131000000
0'
0(
#131500000
r0.9082352941176415 E
r0.9082352941176415 L
r0.9082352941176415 S
r0.9082352941176415 Z
b1111100 ;
1'
1(
#132000000
0'
0(
#132500000
r0.9058823529411709 Z
r0.9058823529411709 S
r0.9058823529411709 L
r0.9058823529411709 E
b1111101 ;
1'
1(
#133000000
0'
0(
#133500000
r0.9035294117647004 E
r0.9035294117647004 L
r0.9035294117647004 S
r0.9035294117647004 Z
b1111110 ;
1'
1(
#134000000
0'
0(
#134500000
r0.9011764705882298 Z
r0.9011764705882298 S
r0.9011764705882298 L
r0.9011764705882298 E
b1111111 ;
1'
1(
#135000000
0'
0(
#135500000
r0.8988235294117592 E
r0.8988235294117592 L
r0.8988235294117592 S
r0.8988235294117592 Z
b10000000 ;
1'
1(
#136000000
0'
0(
#136500000
r0.8964705882352887 Z
r0.8964705882352887 S
r0.8964705882352887 L
r0.8964705882352887 E
b10000001 ;
1'
1(
#137000000
0'
0(
#137500000
r0.8941176470588181 E
r0.8941176470588181 L
r0.8941176470588181 S
r0.8941176470588181 Z
b10000010 ;
1'
1(
#138000000
0'
0(
#138500000
r0.8917647058823476 Z
r0.8917647058823476 S
r0.8917647058823476 L
r0.8917647058823476 E
b10000011 ;
1'
1(
#139000000
0'
0(
#139500000
r0.889411764705877 E
r0.889411764705877 L
r0.889411764705877 S
r0.889411764705877 Z
b10000100 ;
1'
1(
#140000000
0'
0(
#140500000
r0.8870588235294065 Z
r0.8870588235294065 S
r0.8870588235294065 L
r0.8870588235294065 E
b10000101 ;
1'
1(
#141000000
0'
0(
#141500000
r0.8847058823529359 E
r0.8847058823529359 L
r0.8847058823529359 S
r0.8847058823529359 Z
b10000110 ;
1'
1(
#142000000
0'
0(
#142500000
r0.8823529411764653 Z
r0.8823529411764653 S
r0.8823529411764653 L
r0.8823529411764653 E
b10000111 ;
1'
1(
#143000000
0'
0(
#143500000
r0.8799999999999948 E
r0.8799999999999948 L
r0.8799999999999948 S
r0.8799999999999948 Z
b10001000 ;
1'
1(
#144000000
0'
0(
#144500000
r0.8776470588235242 Z
r0.8776470588235242 S
r0.8776470588235242 L
r0.8776470588235242 E
b10001001 ;
1'
1(
#145000000
0'
0(
#145500000
r0.8752941176470537 E
r0.8752941176470537 L
r0.8752941176470537 S
r0.8752941176470537 Z
b10001010 ;
1'
1(
#146000000
0'
0(
#146500000
r0.8729411764705831 Z
r0.8729411764705831 S
r0.8729411764705831 L
r0.8729411764705831 E
b10001011 ;
1'
1(
#147000000
0'
0(
#147500000
r0.8705882352941126 E
r0.8705882352941126 L
r0.8705882352941126 S
r0.8705882352941126 Z
b10001100 ;
1'
1(
#148000000
0'
0(
#148500000
r0.868235294117642 Z
r0.868235294117642 S
r0.868235294117642 L
r0.868235294117642 E
b10001101 ;
1'
1(
#149000000
0'
0(
#149500000
r0.8658823529411714 E
r0.8658823529411714 L
r0.8658823529411714 S
r0.8658823529411714 Z
b10001110 ;
1'
1(
#150000000
0'
0(
#150500000
r0.8635294117647009 Z
r0.8635294117647009 S
r0.8635294117647009 L
r0.8635294117647009 E
b10001111 ;
1'
1(
#151000000
0'
0(
#151500000
r0.8611764705882303 E
r0.8611764705882303 L
r0.8611764705882303 S
r0.8611764705882303 Z
b10010000 ;
1'
1(
#152000000
0'
0(
#152500000
r0.8588235294117598 Z
r0.8588235294117598 S
r0.8588235294117598 L
r0.8588235294117598 E
b10010001 ;
1'
1(
#153000000
0'
0(
#153500000
r0.8564705882352892 E
r0.8564705882352892 L
r0.8564705882352892 S
r0.8564705882352892 Z
b10010010 ;
1'
1(
#154000000
0'
0(
#154500000
r0.8541176470588187 Z
r0.8541176470588187 S
r0.8541176470588187 L
r0.8541176470588187 E
b10010011 ;
1'
1(
#155000000
0'
0(
#155500000
r0.8517647058823481 E
r0.8517647058823481 L
r0.8517647058823481 S
r0.8517647058823481 Z
b10010100 ;
1'
1(
#156000000
0'
0(
#156500000
r0.8494117647058775 Z
r0.8494117647058775 S
r0.8494117647058775 L
r0.8494117647058775 E
b10010101 ;
1'
1(
#157000000
0'
0(
#157500000
r0.847058823529407 E
r0.847058823529407 L
r0.847058823529407 S
r0.847058823529407 Z
b10010110 ;
1'
1(
#158000000
0'
0(
#158500000
r0.8447058823529364 Z
r0.8447058823529364 S
r0.8447058823529364 L
r0.8447058823529364 E
b10010111 ;
1'
1(
#159000000
0'
0(
#159500000
r0.8423529411764659 E
r0.8423529411764659 L
r0.8423529411764659 S
r0.8423529411764659 Z
b10011000 ;
1'
1(
#160000000
0'
0(
#160500000
r0.8399999999999953 Z
r0.8399999999999953 S
r0.8399999999999953 L
r0.8399999999999953 E
b10011001 ;
1'
1(
#161000000
0'
0(
#161500000
r0.8376470588235247 E
r0.8376470588235247 L
r0.8376470588235247 S
r0.8376470588235247 Z
b10011010 ;
1'
1(
#162000000
0'
0(
#162500000
r0.8352941176470542 Z
r0.8352941176470542 S
r0.8352941176470542 L
r0.8352941176470542 E
b10011011 ;
1'
1(
#163000000
0'
0(
#163500000
r0.8329411764705836 E
r0.8329411764705836 L
r0.8329411764705836 S
r0.8329411764705836 Z
b10011100 ;
1'
1(
#164000000
0'
0(
#164500000
r0.8305882352941131 Z
r0.8305882352941131 S
r0.8305882352941131 L
r0.8305882352941131 E
b10011101 ;
1'
1(
#165000000
0'
0(
#165500000
r0.8282352941176425 E
r0.8282352941176425 L
r0.8282352941176425 S
r0.8282352941176425 Z
b10011110 ;
1'
1(
#166000000
0'
0(
#166500000
r0.825882352941172 Z
r0.825882352941172 S
r0.825882352941172 L
r0.825882352941172 E
b10011111 ;
1'
1(
#167000000
0'
0(
#167500000
r0.8235294117647014 E
r0.8235294117647014 L
r0.8235294117647014 S
r0.8235294117647014 Z
b10100000 ;
1'
1(
#168000000
0'
0(
#168500000
r0.8211764705882308 Z
r0.8211764705882308 S
r0.8211764705882308 L
r0.8211764705882308 E
b10100001 ;
1'
1(
#169000000
0'
0(
#169500000
r0.8188235294117603 E
r0.8188235294117603 L
r0.8188235294117603 S
r0.8188235294117603 Z
b10100010 ;
1'
1(
#170000000
0'
0(
#170500000
r0.8164705882352897 Z
r0.8164705882352897 S
r0.8164705882352897 L
r0.8164705882352897 E
b10100011 ;
1'
1(
#171000000
0'
0(
#171500000
r0.8141176470588192 E
r0.8141176470588192 L
r0.8141176470588192 S
r0.8141176470588192 Z
b10100100 ;
1'
1(
#172000000
0'
0(
#172500000
r0.8117647058823486 Z
r0.8117647058823486 S
r0.8117647058823486 L
r0.8117647058823486 E
b10100101 ;
1'
1(
#173000000
0'
0(
#173500000
r0.8094117647058781 E
r0.8094117647058781 L
r0.8094117647058781 S
r0.8094117647058781 Z
b10100110 ;
1'
1(
