verilog/dump.vcd
$date
	Tue Nov 16 20:00:35 2021
$end
$version
	Icarus Verilog
$end
$timescale
	1ps
$end
$scope module pixelTop_tb $end
$var wire 8 ! DATA [7:0] $end
$var reg 1 " clk $end
$var reg 1 # reset $end
$scope module pixelTop $end
$var wire 8 $ DATA [7:0] $end
$var wire 1 % anaReset $end
$var wire 1 " clk $end
$var wire 1 # reset $end
$var wire 1 & read4 $end
$var wire 1 ' read3 $end
$var wire 1 ( read2 $end
$var wire 1 ) read1 $end
$var wire 1 * expose $end
$var wire 1 + erase $end
$var wire 1 , convert $end
$var wire 1 - anaRamp $end
$var wire 1 . anaBias1 $end
$var reg 8 / digitalRamp [7:0] $end
$scope module pixelArray $end
$var wire 8 0 DATA [7:0] $end
$var wire 1 . anaBias1 $end
$var wire 1 - anaRamp $end
$var wire 1 % anaReset $end
$var wire 1 & read4 $end
$var wire 1 ' read3 $end
$var wire 1 ( read2 $end
$var wire 1 ) read1 $end
$var wire 1 * expose $end
$var wire 1 + erase $end
$scope module pixel1 $end
$var wire 8 1 DATA [7:0] $end
$var wire 1 - RAMP $end
$var wire 1 % RESET $end
$var wire 1 . VBN1 $end
$var wire 1 ) READ $end
$var wire 1 * EXPOSE $end
$var wire 1 + ERASE $end
$var reg 1 2 cmp $end
$var reg 8 3 pixelData [7:0] $end
$var real 1 4 adc $end
$var real 1 5 lsb $end
$var real 1 6 tmp $end
$var real 1 7 vErase $end
$upscope $end
$scope module pixel2 $end
$var wire 8 8 DATA [7:0] $end
$var wire 1 - RAMP $end
$var wire 1 % RESET $end
$var wire 1 . VBN1 $end
$var wire 1 ( READ $end
$var wire 1 * EXPOSE $end
$var wire 1 + ERASE $end
$var reg 1 9 cmp $end
$var reg 8 : pixelData [7:0] $end
$var real 1 ; adc $end
$var real 1 < lsb $end
$var real 1 = tmp $end
$var real 1 > vErase $end
$upscope $end
$scope module pixel3 $end
$var wire 8 ? DATA [7:0] $end
$var wire 1 - RAMP $end
$var wire 1 % RESET $end
$var wire 1 . VBN1 $end
$var wire 1 ' READ $end
$var wire 1 * EXPOSE $end
$var wire 1 + ERASE $end
$var reg 1 @ cmp $end
$var reg 8 A pixelData [7:0] $end
$var real 1 B adc $end
$var real 1 C lsb $end
$var real 1 D tmp $end
$var real 1 E vErase $end
$upscope $end
$scope module pixel4 $end
$var wire 8 F DATA [7:0] $end
$var wire 1 - RAMP $end
$var wire 1 % RESET $end
$var wire 1 . VBN1 $end
$var wire 1 & READ $end
$var wire 1 * EXPOSE $end
$var wire 1 + ERASE $end
$var reg 1 G cmp $end
$var reg 8 H pixelData [7:0] $end
$var real 1 I adc $end
$var real 1 J lsb $end
$var real 1 K tmp $end
$var real 1 L vErase $end
$upscope $end
$upscope $end
$scope module stateMachine $end
$var wire 1 " clk $end
$var wire 1 # reset $end
$var reg 1 , convert $end
$var reg 1 + erase $end
$var reg 1 * expose $end
$var reg 4 M nextState [3:0] $end
$var reg 1 ) read1 $end
$var reg 1 ( read2 $end
$var reg 1 ' read3 $end
$var reg 1 & read4 $end
$var reg 4 N state [3:0] $end
$var integer 32 O counter [31:0] $end
$upscope $end
$upscope $end
$upscope $end
$enddefinitions $end
#0
$dumpvars
b0 O
b111 N
b0 M
r1.2 L
r0 K
r0.004705882352941176 J
r0 I
bx H
xG
bx F
r1.2 E
r0 D
r0.004705882352941176 C
r0 B
bx A
x@
bx ?
r1.2 >
r0 =
r0.004705882352941176 <
r0 ;
bx :
x9
bx 8
r1.2 7
r0 6
r0.004705882352941176 5
r0 4
bx 3
x2
bx 1
bx 0
b0 /
0.
0-
0,
x+
x*
x)
x(
x'
x&
1%
bx $
1#
0"
bx !
$end
#500000
b0 N
x.
0#
1"
#1000000
b0 !
b0 $
b0 0
b0 1
b0 8
b0 ?
b0 F
0G
b0 H
r1.2 K
0@
b0 A
r1.2 D
09
b0 :
r1.2 =
02
b0 3
r1.2 6
0*
0&
0'
0(
0)
1+
0.
0"
#1500000
b1 O
1"
#2000000
0"
#2500000
b10 O
1"
#3000000
0"
#3500000
b11 O
1"
#4000000
0"
#4500000
b100 O
1"
#5000000
0"
#5500000
b101 O
1"
#6000000
0"
#6500000
b111 N
b1 M
b110 O
1"
#7000000
0+
0"
#7500000
b1 N
b0 O
1"
#8000000
1*
0"
#8500000
r1.197176470588235 K
r1.196705882352941 D
r1.197647058823529 =
r1.198117647058824 6
1.
b1 O
1"
#9000000
0.
0"
#9500000
r1.196235294117647 6
r1.195294117647059 =
r1.193411764705882 D
r1.194352941176471 K
1.
b10 O
1"
#10000000
0.
0"
#10500000
r1.191529411764706 K
r1.190117647058823 D
r1.192941176470588 =
r1.194352941176471 6
1.
b11 O
1"
#11000000
0.
0"
#11500000
r1.192470588235294 6
r1.190588235294117 =
r1.186823529411764 D
r1.188705882352941 K
1.
b100 O
1"
#12000000
0.
0"
#12500000
r1.185882352941177 K
r1.183529411764705 D
r1.188235294117647 =
r1.190588235294118 6
1.
b101 O
1"
#13000000
0.
0"
#13500000
r1.188705882352941 6
r1.185882352941176 =
r1.180235294117647 D
r1.183058823529412 K
1.
b110 O
1"
#14000000
0.
0"
#14500000
r1.180235294117647 K
r1.176941176470588 D
r1.183529411764705 =
r1.186823529411765 6
1.
b111 O
1"
#15000000
0.
0"
#15500000
r1.184941176470588 6
r1.181176470588235 =
r1.173647058823529 D
r1.177411764705883 K
1.
b1000 O
1"
#16000000
0.
0"
#16500000
r1.174588235294118 K
r1.17035294117647 D
r1.178823529411764 =
r1.183058823529412 6
1.
b1001 O
1"
#17000000
0.
0"
#17500000
r1.181176470588235 6
r1.176470588235293 =
r1.167058823529411 D
r1.171764705882353 K
1.
b1010 O
1"
#18000000
0.
0"
#18500000
r1.168941176470589 K
r1.163764705882352 D
r1.174117647058823 =
r1.179294117647059 6
1.
b1011 O
1"
#19000000
0.
0"
#19500000
r1.177411764705883 6
r1.171764705882352 =
r1.160470588235293 D
r1.166117647058824 K
1.
b1100 O
1"
#20000000
0.
0"
#20500000
r1.163294117647059 K
r1.157176470588234 D
r1.169411764705881 =
r1.175529411764706 6
1.
b1101 O
1"
#21000000
0.
0"
#21500000
r1.17364705882353 6
r1.167058823529411 =
r1.153882352941175 D
r1.160470588235295 K
1.
b1110 O
1"
#22000000
0.
0"
#22500000
r1.15764705882353 K
r1.150588235294117 D
r1.16470588235294 =
r1.171764705882353 6
1.
b1111 O
1"
#23000000
0.
0"
#23500000
r1.169882352941177 6
r1.162352941176469 =
r1.147294117647058 D
r1.154823529411765 K
1.
b10000 O
1"
#24000000
0.
0"
#24500000
r1.152000000000001 K
r1.143999999999999 D
r1.159999999999999 =
r1.168 6
1.
b10001 O
1"
#25000000
0.
0"
#25500000
r1.166117647058824 6
r1.157647058823528 =
r1.14070588235294 D
r1.149176470588236 K
1.
b10010 O
1"
#26000000
0.
0"
#26500000
r1.146352941176471 K
r1.137411764705881 D
r1.155294117647057 =
r1.164235294117647 6
1.
b10011 O
1"
#27000000
0.
0"
#27500000
r1.162352941176471 6
r1.152941176470587 =
r1.134117647058822 D
r1.143529411764707 K
1.
b10100 O
1"
#28000000
0.
0"
#28500000
r1.140705882352942 K
r1.130823529411763 D
r1.150588235294116 =
r1.160470588235295 6
1.
b10101 O
1"
#29000000
0.
0"
#29500000
r1.158588235294118 6
r1.148235294117645 =
r1.127529411764704 D
r1.137882352941177 K
1.
b10110 O
1"
#30000000
0.
0"
#30500000
r1.135058823529413 K
r1.124235294117645 D
r1.145882352941175 =
r1.156705882352942 6
1.
b10111 O
1"
#31000000
0.
0"
#31500000
r1.154823529411765 6
r1.143529411764704 =
r1.120941176470587 D
r1.132235294117648 K
1.
b11000 O
1"
#32000000
0.
0"
#32500000
r1.129411764705883 K
r1.117647058823528 D
r1.141176470588233 =
r1.152941176470589 6
1.
b11001 O
1"
#33000000
0.
0"
#33500000
r1.151058823529412 6
r1.138823529411763 =
r1.114352941176469 D
r1.126588235294119 K
1.
b11010 O
1"
#34000000
0.
0"
#34500000
r1.123764705882354 K
r1.11105882352941 D
r1.136470588235292 =
r1.149176470588236 6
1.
b11011 O
1"
#35000000
0.
0"
#35500000
r1.147294117647059 6
r1.134117647058821 =
r1.107764705882351 D
r1.120941176470589 K
1.
b11100 O
1"
#36000000
0.
0"
#36500000
r1.118117647058825 K
r1.104470588235292 D
r1.131764705882351 =
r1.145411764705883 6
1.
b11101 O
1"
#37000000
0.
0"
#37500000
r1.143529411764707 6
r1.12941176470588 =
r1.101176470588233 D
r1.11529411764706 K
1.
b11110 O
1"
#38000000
0.
0"
#38500000
r1.112470588235295 K
r1.097882352941174 D
r1.127058823529409 =
r1.14164705882353 6
1.
b11111 O
1"
#39000000
0.
0"
#39500000
r1.139764705882354 6
r1.124705882352939 =
r1.094588235294115 D
r1.109647058823531 K
1.
b100000 O
1"
#40000000
0.
0"
#40500000
r1.106823529411766 K
r1.091294117647057 D
r1.122352941176468 =
r1.137882352941177 6
1.
b100001 O
1"
#41000000
0.
0"
#41500000
r1.136000000000001 6
r1.119999999999997 =
r1.087999999999998 D
r1.104000000000001 K
1.
b100010 O
1"
#42000000
0.
0"
#42500000
r1.101176470588237 K
r1.084705882352939 D
r1.117647058823527 =
r1.134117647058824 6
1.
b100011 O
1"
#43000000
0.
0"
#43500000
r1.132235294117648 6
r1.115294117647056 =
r1.08141176470588 D
r1.098352941176472 K
1.
b100100 O
1"
#44000000
0.
0"
#44500000
r1.095529411764707 K
r1.078117647058821 D
r1.112941176470585 =
r1.130352941176471 6
1.
b100101 O
1"
#45000000
0.
0"
#45500000
r1.128470588235295 6
r1.110588235294115 =
r1.074823529411762 D
r1.092705882352943 K
1.
b100110 O
1"
#46000000
0.
0"
#46500000
r1.089882352941178 K
r1.071529411764703 D
r1.108235294117644 =
r1.126588235294119 6
1.
b100111 O
1"
#47000000
0.
0"
#47500000
r1.124705882352942 6
r1.105882352941173 =
r1.068235294117644 D
r1.087058823529413 K
1.
b101000 O
1"
#48000000
0.
0"
#48500000
r1.084235294117649 K
r1.064941176470585 D
r1.103529411764703 =
r1.122823529411766 6
1.
b101001 O
1"
#49000000
0.
0"
#49500000
r1.120941176470589 6
r1.101176470588232 =
r1.061647058823527 D
r1.081411764705884 K
1.
b101010 O
1"
#50000000
0.
0"
#50500000
r1.078588235294119 K
r1.058352941176468 D
r1.098823529411761 =
r1.119058823529413 6
1.
b101011 O
1"
#51000000
0.
0"
#51500000
r1.117176470588236 6
r1.096470588235291 =
r1.055058823529409 D
r1.075764705882355 K
1.
b101100 O
1"
#52000000
0.
0"
#52500000
r1.07294117647059 K
r1.05176470588235 D
r1.09411764705882 =
r1.11529411764706 6
1.
b101101 O
1"
#53000000
0.
0"
#53500000
r1.113411764705883 6
r1.091764705882349 =
r1.048470588235291 D
r1.070117647058825 K
1.
b101110 O
1"
#54000000
0.
0"
#54500000
r1.067294117647061 K
r1.045176470588232 D
r1.089411764705879 =
r1.111529411764707 6
1.
b101111 O
1"
#55000000
0.
0"
#55500000
r1.109647058823531 6
r1.087058823529408 =
r1.041882352941173 D
r1.064470588235296 K
1.
b110000 O
1"
#56000000
0.
0"
#56500000
r1.061647058823531 K
r1.038588235294114 D
r1.084705882352937 =
r1.107764705882354 6
1.
b110001 O
1"
#57000000
0.
0"
#57500000
r1.105882352941178 6
r1.082352941176467 =
r1.035294117647055 D
r1.058823529411766 K
1.
b110010 O
1"
#58000000
0.
0"
#58500000
r1.056000000000002 K
r1.031999999999996 D
r1.079999999999996 =
r1.104000000000001 6
1.
b110011 O
1"
#59000000
0.
0"
#59500000
r1.102117647058825 6
r1.077647058823525 =
r1.028705882352938 D
r1.053176470588237 K
1.
b110100 O
1"
#60000000
0.
0"
#60500000
r1.050352941176472 K
r1.025411764705879 D
r1.075294117647055 =
r1.100235294117648 6
1.
b110101 O
1"
#61000000
0.
0"
#61500000
r1.098352941176472 6
r1.072941176470584 =
r1.02211764705882 D
r1.047529411764708 K
1.
b110110 O
1"
#62000000
0.
0"
#62500000
r1.044705882352943 K
r1.018823529411761 D
r1.070588235294113 =
r1.096470588235295 6
1.
b110111 O
1"
#63000000
0.
0"
#63500000
r1.094588235294119 6
r1.068235294117643 =
r1.015529411764702 D
r1.041882352941178 K
1.
b111000 O
1"
#64000000
0.
0"
#64500000
r1.039058823529414 K
r1.012235294117643 D
r1.065882352941172 =
r1.092705882352943 6
1.
b111001 O
1"
#65000000
0.
0"
#65500000
r1.090823529411766 6
r1.063529411764701 =
r1.008941176470584 D
r1.036235294117649 K
1.
b111010 O
1"
#66000000
0.
0"
#66500000
r1.033411764705884 K
r1.005647058823525 D
r1.061176470588231 =
r1.08894117647059 6
1.
b111011 O
1"
#67000000
0.
0"
#67500000
r1.087058823529413 6
r1.05882352941176 =
r1.002352941176466 D
r1.03058823529412 K
1.
b111100 O
1"
#68000000
0.
0"
#68500000
r1.027764705882355 K
r0.9990588235294077 D
r1.056470588235289 =
r1.085176470588237 6
1.
b111101 O
1"
#69000000
0.
0"
#69500000
r1.08329411764706 6
r1.054117647058818 =
r0.9957647058823489 D
r1.02494117647059 K
1.
b111110 O
1"
#70000000
0.
0"
#70500000
r1.022117647058826 K
r0.9924705882352901 D
r1.051764705882348 =
r1.081411764705884 6
1.
b111111 O
1"
#71000000
0.
0"
#71500000
r1.079529411764707 6
r1.049411764705877 =
r0.9891764705882313 D
r1.019294117647061 K
1.
b1000000 O
1"
#72000000
0.
0"
#72500000
r1.016470588235296 K
r0.9858823529411725 D
r1.047058823529406 =
r1.077647058823531 6
1.
b1000001 O
1"
#73000000
0.
0"
#73500000
r1.075764705882355 6
r1.044705882352936 =
r0.9825882352941138 D
r1.013647058823532 K
1.
b1000010 O
1"
#74000000
0.
0"
#74500000
r1.010823529411767 K
r0.979294117647055 D
r1.042352941176465 =
r1.073882352941178 6
1.
b1000011 O
1"
#75000000
0.
0"
#75500000
r1.072000000000002 6
r1.039999999999994 =
r0.9759999999999962 D
r1.008000000000002 K
1.
b1000100 O
1"
#76000000
0.
0"
#76500000
r1.005176470588238 K
r0.9727058823529374 D
r1.037647058823524 =
r1.070117647058825 6
1.
b1000101 O
1"
#77000000
0.
0"
#77500000
r1.068235294117649 6
r1.035294117647053 =
r0.9694117647058786 D
r1.002352941176473 K
1.
b1000110 O
1"
#78000000
0.
0"
#78500000
r0.9995294117647084 K
r0.9661176470588199 D
r1.032941176470582 =
r1.066352941176472 6
1.
b1000111 O
1"
#79000000
0.
0"
#79500000
r1.064470588235296 6
r1.030588235294112 =
r0.9628235294117611 D
r0.9967058823529438 K
1.
b1001000 O
1"
#80000000
0.
0"
#80500000
r0.9938823529411791 K
r0.9595294117647023 D
r1.028235294117641 =
r1.062588235294119 6
1.
b1001001 O
1"
#81000000
0.
0"
#81500000
r1.060705882352943 6
r1.02588235294117 =
r0.9562352941176435 D
r0.9910588235294144 K
1.
b1001010 O
1"
#82000000
0.
0"
#82500000
r0.9882352941176498 K
r0.9529411764705847 D
r1.0235294117647 =
r1.058823529411766 6
1.
b1001011 O
1"
#83000000
0.
0"
#83500000
r1.05694117647059 6
r1.021176470588229 =
r0.949647058823526 D
r0.9854117647058851 K
1.
b1001100 O
1"
#84000000
0.
0"
#84500000
r0.9825882352941204 K
r0.9463529411764672 D
r1.018823529411758 =
r1.055058823529414 6
1.
b1001101 O
1"
#85000000
0.
0"
#85500000
r1.053176470588237 6
r1.016470588235288 =
r0.9430588235294084 D
r0.9797647058823558 K
1.
b1001110 O
1"
#86000000
0.
0"
#86500000
r0.9769411764705911 K
r0.9397647058823496 D
r1.014117647058817 =
r1.051294117647061 6
1.
b1001111 O
1"
#87000000
0.
0"
#87500000
r1.049411764705884 6
r1.011764705882346 =
r0.9364705882352908 D
r0.9741176470588264 K
1.
b1010000 O
1"
#88000000
0.
0"
#88500000
r0.9712941176470617 K
r0.9331764705882321 D
r1.009411764705876 =
r1.047529411764708 6
1.
b1010001 O
1"
#89000000
0.
0"
#89500000
r1.045647058823531 6
r1.007058823529405 =
r0.9298823529411733 D
r0.9684705882352971 K
1.
b1010010 O
1"
#90000000
0.
0"
#90500000
r0.9656470588235324 K
r0.9265882352941145 D
r1.004705882352934 =
r1.043764705882355 6
1.
b1010011 O
1"
#91000000
0.
0"
#91500000
r1.041882352941178 6
r1.002352941176464 =
r0.9232941176470557 D
r0.9628235294117677 K
1.
b1010100 O
1"
#92000000
0.
0"
#92500000
r0.9600000000000031 K
r0.9199999999999969 D
r0.9999999999999932 =
r1.040000000000002 6
1.
b1010101 O
1"
#93000000
0.
0"
#93500000
r1.038117647058826 6
r0.9976470588235227 =
r0.9167058823529382 D
r0.9571764705882384 K
1.
b1010110 O
1"
#94000000
0.
0"
#94500000
r0.9543529411764737 K
r0.9134117647058794 D
r0.9952941176470521 =
r1.036235294117649 6
1.
b1010111 O
1"
#95000000
0.
0"
#95500000
r1.034352941176473 6
r0.9929411764705816 =
r0.9101176470588206 D
r0.9515294117647091 K
1.
b1011000 O
1"
#96000000
0.
0"
#96500000
r0.9487058823529444 K
r0.9068235294117618 D
r0.990588235294111 =
r1.032470588235296 6
1.
b1011001 O
1"
#97000000
0.
0"
#97500000
r1.03058823529412 6
r0.9882352941176404 =
r0.903529411764703 D
r0.9458823529411797 K
1.
b1011010 O
1"
#98000000
0.
0"
#98500000
r0.9430588235294151 K
r0.9002352941176442 D
r0.9858823529411699 =
r1.028705882352943 6
1.
b1011011 O
1"
#99000000
0.
0"
#99500000
r1.026823529411767 6
r0.9835294117646993 =
r0.8969411764705855 D
r0.9402352941176504 K
1.
b1011100 O
1"
#100000000
0.
0"
#100500000
r0.9374117647058857 K
r0.8936470588235267 D
r0.9811764705882288 =
r1.02494117647059 6
1.
b1011101 O
1"
#101000000
0.
0"
#101500000
r1.023058823529414 6
r0.9788235294117582 =
r0.8903529411764679 D
r0.9345882352941211 K
1.
b1011110 O
1"
#102000000
0.
0"
#102500000
r0.9317647058823564 K
r0.8870588235294091 D
r0.9764705882352877 =
r1.021176470588238 6
1.
b1011111 O
1"
#103000000
0.
0"
#103500000
r1.019294117647061 6
r0.9741176470588171 =
r0.8837647058823503 D
r0.9289411764705917 K
1.
b1100000 O
1"
#104000000
0.
0"
#104500000
r0.926117647058827 K
r0.8804705882352916 D
r0.9717647058823465 =
r1.017411764705885 6
1.
b1100001 O
1"
#105000000
0.
0"
#105500000
r1.015529411764708 6
r0.969411764705876 =
r0.8771764705882328 D
r0.9232941176470624 K
1.
b1100010 O
1"
#106000000
0.
0"
#106500000
r0.9204705882352977 K
r0.873882352941174 D
r0.9670588235294054 =
r1.013647058823532 6
1.
b1100011 O
1"
#107000000
0.
0"
#107500000
r1.011764705882355 6
r0.9647058823529349 =
r0.8705882352941152 D
r0.917647058823533 K
1.
b1100100 O
1"
#108000000
0.
0"
#108500000
r0.9148235294117684 K
r0.8672941176470564 D
r0.9623529411764643 =
r1.009882352941179 6
1.
b1100101 O
1"
#109000000
0.
0"
#109500000
r1.008000000000002 6
r0.9599999999999937 =
r0.8639999999999977 D
r0.9120000000000037 K
1.
b1100110 O
1"
#110000000
0.
0"
#110500000
r0.909176470588239 K
r0.8607058823529389 D
r0.9576470588235232 =
r1.006117647058826 6
1.
b1100111 O
1"
#111000000
0.
0"
#111500000
r1.00423529411765 6
r0.9552941176470526 =
r0.8574117647058801 D
r0.9063529411764744 K
1.
b1101000 O
1"
#112000000
0.
0"
#112500000
r0.9035294117647097 K
r0.8541176470588213 D
r0.9529411764705821 =
r1.002352941176473 6
1.
b1101001 O
1"
#113000000
0.
0"
#113500000
r1.000470588235297 6
r0.9505882352941115 =
r0.8508235294117625 D
r0.900705882352945 K
1.
b1101010 O
1"
#114000000
0.
0"
#114500000
r0.8978823529411804 K
r0.8475294117647038 D
r0.948235294117641 =
r0.9985882352941202 6
1.
b1101011 O
1"
#115000000
0.
0"
#115500000
r0.9967058823529438 6
r0.9458823529411704 =
r0.844235294117645 D
r0.8950588235294157 K
1.
b1101100 O
1"
#116000000
0.
0"
#116500000
r0.892235294117651 K
r0.8409411764705862 D
r0.9435294117646998 =
r0.9948235294117673 6
1.
b1101101 O
1"
#117000000
0.
0"
#117500000
r0.9929411764705909 6
r0.9411764705882293 =
r0.8376470588235274 D
r0.8894117647058863 K
1.
b1101110 O
1"
#118000000
0.
0"
#118500000
r0.8865882352941217 K
r0.8343529411764686 D
r0.9388235294117587 =
r0.9910588235294144 6
1.
b1101111 O
1"
#119000000
0.
0"
#119500000
r0.989176470588238 6
r0.9364705882352882 =
r0.8310588235294099 D
r0.883764705882357 K
1.
b1110000 O
1"
#120000000
0.
0"
#120500000
r0.8809411764705923 K
r0.8277647058823511 D
r0.9341176470588176 =
r0.9872941176470615 6
1.
b1110001 O
1"
#121000000
0.
0"
#121500000
r0.9854117647058851 6
r0.9317647058823471 =
r0.8244705882352923 D
r0.8781176470588277 K
1.
b1110010 O
1"
#122000000
0.
0"
#122500000
r0.875294117647063 K
r0.8211764705882335 D
r0.9294117647058765 =
r0.9835294117647086 6
1.
b1110011 O
1"
#123000000
0.
0"
#123500000
r0.9816470588235322 6
r0.9270588235294059 =
r0.8178823529411747 D
r0.8724705882352983 K
1.
b1110100 O
1"
#124000000
0.
0"
#124500000
r0.8696470588235337 K
r0.8145882352941159 D
r0.9247058823529354 =
r0.9797647058823558 6
1.
b1110101 O
1"
#125000000
0.
0"
#125500000
r0.9778823529411793 6
r0.9223529411764648 =
r0.8112941176470572 D
r0.866823529411769 K
1.
b1110110 O
1"
#126000000
0.
0"
#126500000
r0.8640000000000043 K
r0.8079999999999984 D
r0.9199999999999943 =
r0.9760000000000029 6
1.
b1110111 O
1"
#127000000
0.
0"
#127500000
r0.9741176470588264 6
r0.9176470588235237 =
r0.8047058823529396 D
r0.8611764705882397 K
1.
b1111000 O
1"
#128000000
0.
0"
#128500000
r0.858352941176475 K
r0.8014117647058808 D
r0.9152941176470532 =
r0.97223529411765 6
1.
b1111001 O
1"
#129000000
0.
0"
#129500000
r0.9703529411764735 6
r0.9129411764705826 =
r0.798117647058822 D
r0.8555294117647103 K
1.
b1111010 O
1"
#130000000
0.
0"
#130500000
r0.8527058823529456 K
r0.7948235294117633 D
r0.910588235294112 =
r0.9684705882352971 6
1.
b1111011 O
1"
#131000000
0.
0"
#131500000
r0.9665882352941206 6
r0.9082352941176415 =
r0.7915294117647045 D
r0.849882352941181 K
1.
b1111100 O
1"
#132000000
0.
0"
#132500000
r0.8470588235294163 K
r0.7882352941176457 D
r0.9058823529411709 =
r0.9647058823529442 6
1.
b1111101 O
1"
#133000000
0.
0"
#133500000
r0.9628235294117677 6
r0.9035294117647004 =
r0.7849411764705869 D
r0.8442352941176516 K
1.
b1111110 O
1"
#134000000
0.
0"
#134500000
r0.841411764705887 K
r0.7816470588235281 D
r0.9011764705882298 =
r0.9609411764705913 6
1.
b1111111 O
1"
#135000000
0.
0"
#135500000
r0.9590588235294149 6
r0.8988235294117592 =
r0.7783529411764694 D
r0.8385882352941223 K
1.
b10000000 O
1"
#136000000
0.
0"
#136500000
r0.8357647058823576 K
r0.7750588235294106 D
r0.8964705882352887 =
r0.9571764705882384 6
1.
b10000001 O
1"
#137000000
0.
0"
#137500000
r0.955294117647062 6
r0.8941176470588181 =
r0.7717647058823518 D
r0.832941176470593 K
1.
b10000010 O
1"
#138000000
0.
0"
#138500000
r0.8301176470588283 K
r0.768470588235293 D
r0.8917647058823476 =
r0.9534117647058855 6
1.
b10000011 O
1"
#139000000
0.
0"
#139500000
r0.9515294117647091 6
r0.889411764705877 =
r0.7651764705882342 D
r0.8272941176470636 K
1.
b10000100 O
1"
#140000000
0.
0"
#140500000
r0.824470588235299 K
r0.7618823529411755 D
r0.8870588235294065 =
r0.9496470588235326 6
1.
b10000101 O
1"
#141000000
0.
0"
#141500000
r0.9477647058823562 6
r0.8847058823529359 =
r0.7585882352941167 D
r0.8216470588235343 K
1.
b10000110 O
1"
#142000000
0.
0"
#142500000
r0.8188235294117696 K
r0.7552941176470579 D
r0.8823529411764653 =
r0.9458823529411797 6
1.
b10000111 O
1"
#143000000
0.
0"
#143500000
r0.9440000000000033 6
r0.8799999999999948 =
r0.7519999999999991 D
r0.8160000000000049 K
1.
b10001000 O
1"
#144000000
0.
0"
#144500000
r0.8131764705882403 K
r0.7487058823529403 D
r0.8776470588235242 =
r0.9421176470588268 6
1.
b10001001 O
1"
#145000000
0.
0"
#145500000
r0.9402352941176504 6
r0.8752941176470537 =
r0.7454117647058816 D
r0.8103529411764756 K
1.
b10001010 O
1"
#146000000
0.
0"
#146500000
r0.8075294117647109 K
r0.7421176470588228 D
r0.8729411764705831 =
r0.9383529411764739 6
1.
b10001011 O
1"
#147000000
0.
0"
#147500000
r0.9364705882352975 6
r0.8705882352941126 =
r0.738823529411764 D
r0.8047058823529463 K
1.
b10001100 O
1"
#148000000
0.
0"
#148500000
r0.8018823529411816 K
r0.7355294117647052 D
r0.868235294117642 =
r0.9345882352941211 6
1.
b10001101 O
1"
#149000000
0.
0"
#149500000
r0.9327058823529446 6
r0.8658823529411714 =
r0.7322352941176464 D
r0.7990588235294169 K
1.
b10001110 O
1"
#150000000
0.
0"
#150500000
r0.7962352941176523 K
r0.7289411764705876 D
r0.8635294117647009 =
r0.9308235294117682 6
1.
b10001111 O
1"
#151000000
0.
0"
#151500000
r0.9289411764705917 6
r0.8611764705882303 =
r0.7256470588235289 D
r0.7934117647058876 K
1.
b10010000 O
1"
#152000000
0.
0"
#152500000
r0.7905882352941229 K
r0.7223529411764701 D
r0.8588235294117598 =
r0.9270588235294153 6
1.
b10010001 O
1"
#153000000
0.
0"
#153500000
r0.9251764705882388 6
r0.8564705882352892 =
r0.7190588235294113 D
r0.7877647058823583 K
1.
b10010010 O
1"
#154000000
0.
0"
#154500000
r0.7849411764705936 K
r0.7157647058823525 D
r0.8541176470588187 =
r0.9232941176470624 6
1.
b10010011 O
1"
#155000000
0.
0"
#155500000
r0.9214117647058859 6
r0.8517647058823481 =
r0.7124705882352937 D
r0.7821176470588289 K
1.
b10010100 O
1"
#156000000
0.
0"
#156500000
r0.7792941176470642 K
r0.709176470588235 D
r0.8494117647058775 =
r0.9195294117647095 6
1.
b10010101 O
1"
#157000000
0.
0"
#157500000
r0.917647058823533 6
r0.847058823529407 =
r0.7058823529411762 D
r0.7764705882352996 K
1.
b10010110 O
1"
#158000000
0.
0"
#158500000
r0.7736470588235349 K
r0.7025882352941174 D
r0.8447058823529364 =
r0.9157647058823566 6
1.
b10010111 O
1"
#159000000
0.
0"
#159500000
r0.9138823529411801 6
r0.8423529411764659 =
r0.6992941176470586 D
r0.7708235294117702 K
1.
b10011000 O
1"
#160000000
0.
0"
#160500000
r0.7680000000000056 K
r0.6959999999999998 D
r0.8399999999999953 =
r0.9120000000000037 6
1.
b10011001 O
1"
#161000000
0.
0"
#161500000
r0.9101176470588273 6
r0.8376470588235247 =
r0.6927058823529411 D
r0.7651764705882409 K
1.
b10011010 O
1"
#162000000
0.
0"
#162500000
r0.7623529411764762 K
r0.6894117647058823 D
r0.8352941176470542 =
r0.9082352941176508 6
1.
b10011011 O
1"
#163000000
0.
0"
#163500000
r0.9063529411764744 6
r0.8329411764705836 =
r0.6861176470588235 D
r0.7595294117647116 K
1.
b10011100 O
1"
#164000000
0.
0"
#164500000
r0.7567058823529469 K
r0.6828235294117647 D
r0.8305882352941131 =
r0.9044705882352979 6
1.
b10011101 O
1"
#165000000
0.
0"
#165500000
r0.9025882352941215 6
r0.8282352941176425 =
r0.6795294117647059 D
r0.7538823529411822 K
1.
b10011110 O
1"
#166000000
0.
0"
#166500000
r0.7510588235294176 K
r0.6762352941176472 D
r0.825882352941172 =
r0.900705882352945 6
1.
b10011111 O
1"
#167000000
0.
0"
#167500000
r0.8988235294117686 6
r0.8235294117647014 =
r0.6729411764705884 D
r0.7482352941176529 K
1.
b10100000 O
1"
#168000000
0.
0"
#168500000
r0.7454117647058882 K
r0.6696470588235296 D
r0.8211764705882308 =
r0.8969411764705921 6
1.
b10100001 O
1"
#169000000
0.
0"
#169500000
r0.8950588235294157 6
r0.8188235294117603 =
r0.6663529411764708 D
r0.7425882352941235 K
1.
b10100010 O
1"
#170000000
0.
0"
#170500000
r0.7397647058823589 K
r0.663058823529412 D
r0.8164705882352897 =
r0.8931764705882392 6
1.
b10100011 O
1"
#171000000
0.
0"
#171500000
r0.8912941176470628 6
r0.8141176470588192 =
r0.6597647058823533 D
r0.7369411764705942 K
1.
b10100100 O
1"
#172000000
0.
0"
#172500000
r0.7341176470588295 K
r0.6564705882352945 D
r0.8117647058823486 =
r0.8894117647058863 6
1.
b10100101 O
1"
#173000000
0.
0"
#173500000
r0.8875294117647099 6
r0.8094117647058781 =
r0.6531764705882357 D
r0.7312941176470649 K
1.
b10100110 O
1"
#174000000
0.
0"
#174500000
r0.7284705882353002 K
r0.6498823529411769 D
r0.8070588235294075 =
r0.8856470588235335 6
1.
b10100111 O
1"
#175000000
0.
0"
#175500000
r0.883764705882357 6
r0.8047058823529369 =
r0.6465882352941181 D
r0.7256470588235355 K
1.
b10101000 O
1"
#176000000
0.
0"
#176500000
r0.7228235294117709 K
r0.6432941176470593 D
r0.8023529411764664 =
r0.8818823529411806 6
1.
b10101001 O
1"
#177000000
0.
0"
#177500000
r0.8800000000000041 6
r0.7999999999999958 =
r0.6400000000000006 D
r0.7200000000000062 K
1.
b10101010 O
1"
#178000000
0.
0"
#178500000
r0.7171764705882415 K
r0.6367058823529418 D
r0.7976470588235253 =
r0.8781176470588277 6
1.
b10101011 O
1"
#179000000
0.
0"
#179500000
r0.8762352941176512 6
r0.7952941176470547 =
r0.633411764705883 D
r0.7143529411764769 K
1.
b10101100 O
1"
#180000000
0.
0"
