verilog/pixelTop_tb.vcd
$date
	Thu Nov 18 22:07:11 2021
$end
$version
	Icarus Verilog
$end
$timescale
	1ps
$end
$scope module pixelTop_tb $end
$var wire 8 ! DATA [7:0] $end
$var wire 1 " read4 $end
$var wire 1 # read3 $end
$var wire 1 $ read2 $end
$var wire 1 % read1 $end
$var wire 1 & expose $end
$var wire 1 ' erase $end
$var wire 1 ( convert $end
$var wire 1 ) anaRamp $end
$var wire 1 * anaBias1 $end
$var reg 1 + clk $end
$var reg 1 , reset $end
$scope module pixelTop $end
$var wire 8 - DATA [7:0] $end
$var wire 1 + clk $end
$var wire 1 , reset $end
$var wire 1 " read4 $end
$var wire 1 # read3 $end
$var wire 1 $ read2 $end
$var wire 1 % read1 $end
$var wire 1 & expose $end
$var wire 1 ' erase $end
$var wire 1 ( convert $end
$var wire 1 ) anaRamp $end
$var wire 1 * anaBias1 $end
$var reg 8 . digitalRamp [7:0] $end
$scope module pixelArray $end
$var wire 8 / DATA [7:0] $end
$var wire 1 * anaBias1 $end
$var wire 1 ) anaRamp $end
$var wire 1 " read4 $end
$var wire 1 # read3 $end
$var wire 1 $ read2 $end
$var wire 1 % read1 $end
$var wire 1 & expose $end
$var wire 1 ' erase $end
$scope module pixel1 $end
$var wire 8 0 DATA [7:0] $end
$var wire 1 ) RAMP $end
$var wire 1 * VBN1 $end
$var wire 1 % READ $end
$var wire 1 & EXPOSE $end
$var wire 1 ' ERASE $end
$var reg 1 1 cmp $end
$var reg 8 2 pixelData [7:0] $end
$var real 1 3 adc $end
$var real 1 4 lsb $end
$var real 1 5 tmp $end
$var real 1 6 vErase $end
$upscope $end
$scope module pixel2 $end
$var wire 8 7 DATA [7:0] $end
$var wire 1 ) RAMP $end
$var wire 1 * VBN1 $end
$var wire 1 $ READ $end
$var wire 1 & EXPOSE $end
$var wire 1 ' ERASE $end
$var reg 1 8 cmp $end
$var reg 8 9 pixelData [7:0] $end
$var real 1 : adc $end
$var real 1 ; lsb $end
$var real 1 < tmp $end
$var real 1 = vErase $end
$upscope $end
$scope module pixel3 $end
$var wire 8 > DATA [7:0] $end
$var wire 1 ) RAMP $end
$var wire 1 * VBN1 $end
$var wire 1 # READ $end
$var wire 1 & EXPOSE $end
$var wire 1 ' ERASE $end
$var reg 1 ? cmp $end
$var reg 8 @ pixelData [7:0] $end
$var real 1 A adc $end
$var real 1 B lsb $end
$var real 1 C tmp $end
$var real 1 D vErase $end
$upscope $end
$scope module pixel4 $end
$var wire 8 E DATA [7:0] $end
$var wire 1 ) RAMP $end
$var wire 1 * VBN1 $end
$var wire 1 " READ $end
$var wire 1 & EXPOSE $end
$var wire 1 ' ERASE $end
$var reg 1 F cmp $end
$var reg 8 G pixelData [7:0] $end
$var real 1 H adc $end
$var real 1 I lsb $end
$var real 1 J tmp $end
$var real 1 K vErase $end
$upscope $end
$upscope $end
$scope module stateMachine $end
$var wire 1 + clk $end
$var wire 1 , reset $end
$var reg 1 ( convert $end
$var reg 1 ' erase $end
$var reg 1 & expose $end
$var reg 4 L nextState [3:0] $end
$var reg 1 % read1 $end
$var reg 1 $ read2 $end
$var reg 1 # read3 $end
$var reg 1 " read4 $end
$var reg 4 M state [3:0] $end
$var integer 32 N counter [31:0] $end
$upscope $end
$upscope $end
$upscope $end
$enddefinitions $end
#0
$dumpvars
b0 N
b111 M
b0 L
r1.2 K
r0 J
r0.004705882352941176 I
r0 H
bx G
xF
bx E
r1.2 D
r0 C
r0.004705882352941176 B
r0 A
bx @
x?
bx >
r1.2 =
r0 <
r0.004705882352941176 ;
r0 :
bx 9
x8
bx 7
r1.2 6
r0 5
r0.004705882352941176 4
r0 3
bx 2
x1
bx 0
bx /
b0 .
bx -
1,
0+
0*
0)
0(
x'
x&
x%
x$
x#
x"
bx !
$end
#500000
b0 M
x*
0,
1+
#1000000
b0 !
b0 -
b0 /
b0 0
b0 7
b0 >
b0 E
0F
b0 G
r1.2 J
0?
b0 @
r1.2 C
08
b0 9
r1.2 <
01
b0 2
r1.2 5
0&
0"
0#
0$
0%
1'
0*
0+
#1500000
b1 N
1+
#2000000
0+
#2500000
b10 N
1+
#3000000
0+
#3500000
b11 N
1+
#4000000
0+
#4500000
b100 N
1+
#5000000
0+
#5500000
b101 N
1+
#6000000
0+
#6500000
b111 M
b1 L
b110 N
1+
#7000000
0'
0+
#7500000
b1 M
b0 N
1+
#8000000
1&
0+
#8500000
r1.197176470588235 J
r1.196705882352941 C
r1.197647058823529 <
r1.198117647058824 5
1*
b1 N
1+
#9000000
0*
0+
#9500000
r1.196235294117647 5
r1.195294117647059 <
r1.193411764705882 C
r1.194352941176471 J
1*
b10 N
1+
#10000000
0*
0+
#10500000
r1.191529411764706 J
r1.190117647058823 C
r1.192941176470588 <
r1.194352941176471 5
1*
b11 N
1+
#11000000
0*
0+
#11500000
r1.192470588235294 5
r1.190588235294117 <
r1.186823529411764 C
r1.188705882352941 J
1*
b100 N
1+
#12000000
0*
0+
#12500000
r1.185882352941177 J
r1.183529411764705 C
r1.188235294117647 <
r1.190588235294118 5
1*
b101 N
1+
#13000000
0*
0+
#13500000
r1.188705882352941 5
r1.185882352941176 <
r1.180235294117647 C
r1.183058823529412 J
1*
b110 N
1+
#14000000
0*
0+
#14500000
r1.180235294117647 J
r1.176941176470588 C
r1.183529411764705 <
r1.186823529411765 5
1*
b111 N
1+
#15000000
0*
0+
#15500000
r1.184941176470588 5
r1.181176470588235 <
r1.173647058823529 C
r1.177411764705883 J
1*
b1000 N
1+
#16000000
0*
0+
#16500000
r1.174588235294118 J
r1.17035294117647 C
r1.178823529411764 <
r1.183058823529412 5
1*
b1001 N
1+
#17000000
0*
0+
#17500000
r1.181176470588235 5
r1.176470588235293 <
r1.167058823529411 C
r1.171764705882353 J
1*
b1010 N
1+
#18000000
0*
0+
#18500000
r1.168941176470589 J
r1.163764705882352 C
r1.174117647058823 <
r1.179294117647059 5
1*
b1011 N
1+
#19000000
0*
0+
#19500000
r1.177411764705883 5
r1.171764705882352 <
r1.160470588235293 C
r1.166117647058824 J
1*
b1100 N
1+
#20000000
0*
0+
#20500000
r1.163294117647059 J
r1.157176470588234 C
r1.169411764705881 <
r1.175529411764706 5
1*
b1101 N
1+
#21000000
0*
0+
#21500000
r1.17364705882353 5
r1.167058823529411 <
r1.153882352941175 C
r1.160470588235295 J
1*
b1110 N
1+
#22000000
0*
0+
#22500000
r1.15764705882353 J
r1.150588235294117 C
r1.16470588235294 <
r1.171764705882353 5
1*
b1111 N
1+
#23000000
0*
0+
#23500000
r1.169882352941177 5
r1.162352941176469 <
r1.147294117647058 C
r1.154823529411765 J
1*
b10000 N
1+
#24000000
0*
0+
#24500000
r1.152000000000001 J
r1.143999999999999 C
r1.159999999999999 <
r1.168 5
1*
b10001 N
1+
#25000000
0*
0+
#25500000
r1.166117647058824 5
r1.157647058823528 <
r1.14070588235294 C
r1.149176470588236 J
1*
b10010 N
1+
#26000000
0*
0+
#26500000
r1.146352941176471 J
r1.137411764705881 C
r1.155294117647057 <
r1.164235294117647 5
1*
b10011 N
1+
#27000000
0*
0+
#27500000
r1.162352941176471 5
r1.152941176470587 <
r1.134117647058822 C
r1.143529411764707 J
1*
b10100 N
1+
#28000000
0*
0+
#28500000
r1.140705882352942 J
r1.130823529411763 C
r1.150588235294116 <
r1.160470588235295 5
1*
b10101 N
1+
#29000000
0*
0+
#29500000
r1.158588235294118 5
r1.148235294117645 <
r1.127529411764704 C
r1.137882352941177 J
1*
b10110 N
1+
#30000000
0*
0+
#30500000
r1.135058823529413 J
r1.124235294117645 C
r1.145882352941175 <
r1.156705882352942 5
1*
b10111 N
1+
#31000000
0*
0+
#31500000
r1.154823529411765 5
r1.143529411764704 <
r1.120941176470587 C
r1.132235294117648 J
1*
b11000 N
1+
#32000000
0*
0+
#32500000
r1.129411764705883 J
r1.117647058823528 C
r1.141176470588233 <
r1.152941176470589 5
1*
b11001 N
1+
#33000000
0*
0+
#33500000
r1.151058823529412 5
r1.138823529411763 <
r1.114352941176469 C
r1.126588235294119 J
1*
b11010 N
1+
#34000000
0*
0+
#34500000
r1.123764705882354 J
r1.11105882352941 C
r1.136470588235292 <
r1.149176470588236 5
1*
b11011 N
1+
#35000000
0*
0+
#35500000
r1.147294117647059 5
r1.134117647058821 <
r1.107764705882351 C
r1.120941176470589 J
1*
b11100 N
1+
#36000000
0*
0+
#36500000
r1.118117647058825 J
r1.104470588235292 C
r1.131764705882351 <
r1.145411764705883 5
1*
b11101 N
1+
#37000000
0*
0+
#37500000
r1.143529411764707 5
r1.12941176470588 <
r1.101176470588233 C
r1.11529411764706 J
1*
b11110 N
1+
#38000000
0*
0+
#38500000
r1.112470588235295 J
r1.097882352941174 C
r1.127058823529409 <
r1.14164705882353 5
1*
b11111 N
1+
#39000000
0*
0+
#39500000
r1.139764705882354 5
r1.124705882352939 <
r1.094588235294115 C
r1.109647058823531 J
1*
b100000 N
1+
#40000000
0*
0+
#40500000
r1.106823529411766 J
r1.091294117647057 C
r1.122352941176468 <
r1.137882352941177 5
1*
b100001 N
1+
#41000000
0*
0+
#41500000
r1.136000000000001 5
r1.119999999999997 <
r1.087999999999998 C
r1.104000000000001 J
1*
b100010 N
1+
#42000000
0*
0+
#42500000
r1.101176470588237 J
r1.084705882352939 C
r1.117647058823527 <
r1.134117647058824 5
1*
b100011 N
1+
#43000000
0*
0+
#43500000
r1.132235294117648 5
r1.115294117647056 <
r1.08141176470588 C
r1.098352941176472 J
1*
b100100 N
1+
#44000000
0*
0+
#44500000
r1.095529411764707 J
r1.078117647058821 C
r1.112941176470585 <
r1.130352941176471 5
1*
b100101 N
1+
#45000000
0*
0+
#45500000
r1.128470588235295 5
r1.110588235294115 <
r1.074823529411762 C
r1.092705882352943 J
1*
b100110 N
1+
#46000000
0*
0+
#46500000
r1.089882352941178 J
r1.071529411764703 C
r1.108235294117644 <
r1.126588235294119 5
1*
b100111 N
1+
#47000000
0*
0+
#47500000
r1.124705882352942 5
r1.105882352941173 <
r1.068235294117644 C
r1.087058823529413 J
1*
b101000 N
1+
#48000000
0*
0+
#48500000
r1.084235294117649 J
r1.064941176470585 C
r1.103529411764703 <
r1.122823529411766 5
1*
b101001 N
1+
#49000000
0*
0+
#49500000
r1.120941176470589 5
r1.101176470588232 <
r1.061647058823527 C
r1.081411764705884 J
1*
b101010 N
1+
#50000000
0*
0+
#50500000
r1.078588235294119 J
r1.058352941176468 C
r1.098823529411761 <
r1.119058823529413 5
1*
b101011 N
1+
#51000000
0*
0+
#51500000
r1.117176470588236 5
r1.096470588235291 <
r1.055058823529409 C
r1.075764705882355 J
1*
b101100 N
1+
#52000000
0*
0+
#52500000
r1.07294117647059 J
r1.05176470588235 C
r1.09411764705882 <
r1.11529411764706 5
1*
b101101 N
1+
#53000000
0*
0+
#53500000
r1.113411764705883 5
r1.091764705882349 <
r1.048470588235291 C
r1.070117647058825 J
1*
b101110 N
1+
#54000000
0*
0+
#54500000
r1.067294117647061 J
r1.045176470588232 C
r1.089411764705879 <
r1.111529411764707 5
1*
b101111 N
1+
#55000000
0*
0+
#55500000
r1.109647058823531 5
r1.087058823529408 <
r1.041882352941173 C
r1.064470588235296 J
1*
b110000 N
1+
#56000000
0*
0+
#56500000
r1.061647058823531 J
r1.038588235294114 C
r1.084705882352937 <
r1.107764705882354 5
1*
b110001 N
1+
#57000000
0*
0+
#57500000
r1.105882352941178 5
r1.082352941176467 <
r1.035294117647055 C
r1.058823529411766 J
1*
b110010 N
1+
#58000000
0*
0+
#58500000
r1.056000000000002 J
r1.031999999999996 C
r1.079999999999996 <
r1.104000000000001 5
1*
b110011 N
1+
#59000000
0*
0+
#59500000
r1.102117647058825 5
r1.077647058823525 <
r1.028705882352938 C
r1.053176470588237 J
1*
b110100 N
1+
#60000000
0*
0+
#60500000
r1.050352941176472 J
r1.025411764705879 C
r1.075294117647055 <
r1.100235294117648 5
1*
b110101 N
1+
#61000000
0*
0+
#61500000
r1.098352941176472 5
r1.072941176470584 <
r1.02211764705882 C
r1.047529411764708 J
1*
b110110 N
1+
#62000000
0*
0+
#62500000
r1.044705882352943 J
r1.018823529411761 C
r1.070588235294113 <
r1.096470588235295 5
1*
b110111 N
1+
#63000000
0*
0+
#63500000
r1.094588235294119 5
r1.068235294117643 <
r1.015529411764702 C
r1.041882352941178 J
1*
b111000 N
1+
#64000000
0*
0+
#64500000
r1.039058823529414 J
r1.012235294117643 C
r1.065882352941172 <
r1.092705882352943 5
1*
b111001 N
1+
#65000000
0*
0+
#65500000
r1.090823529411766 5
r1.063529411764701 <
r1.008941176470584 C
r1.036235294117649 J
1*
b111010 N
1+
#66000000
0*
0+
#66500000
r1.033411764705884 J
r1.005647058823525 C
r1.061176470588231 <
r1.08894117647059 5
1*
b111011 N
1+
#67000000
0*
0+
#67500000
r1.087058823529413 5
r1.05882352941176 <
r1.002352941176466 C
r1.03058823529412 J
1*
b111100 N
1+
#68000000
0*
0+
#68500000
r1.027764705882355 J
r0.9990588235294077 C
r1.056470588235289 <
r1.085176470588237 5
1*
b111101 N
1+
#69000000
0*
0+
#69500000
r1.08329411764706 5
r1.054117647058818 <
r0.9957647058823489 C
r1.02494117647059 J
1*
b111110 N
1+
#70000000
0*
0+
#70500000
r1.022117647058826 J
r0.9924705882352901 C
r1.051764705882348 <
r1.081411764705884 5
1*
b111111 N
1+
#71000000
0*
0+
#71500000
r1.079529411764707 5
r1.049411764705877 <
r0.9891764705882313 C
r1.019294117647061 J
1*
b1000000 N
1+
#72000000
0*
0+
#72500000
r1.016470588235296 J
r0.9858823529411725 C
r1.047058823529406 <
r1.077647058823531 5
1*
b1000001 N
1+
#73000000
0*
0+
#73500000
r1.075764705882355 5
r1.044705882352936 <
r0.9825882352941138 C
r1.013647058823532 J
1*
b1000010 N
1+
#74000000
0*
0+
#74500000
r1.010823529411767 J
r0.979294117647055 C
r1.042352941176465 <
r1.073882352941178 5
1*
b1000011 N
1+
#75000000
0*
0+
#75500000
r1.072000000000002 5
r1.039999999999994 <
r0.9759999999999962 C
r1.008000000000002 J
1*
b1000100 N
1+
#76000000
0*
0+
#76500000
r1.005176470588238 J
r0.9727058823529374 C
r1.037647058823524 <
r1.070117647058825 5
1*
b1000101 N
1+
#77000000
0*
0+
#77500000
r1.068235294117649 5
r1.035294117647053 <
r0.9694117647058786 C
r1.002352941176473 J
1*
b1000110 N
1+
#78000000
0*
0+
#78500000
r0.9995294117647084 J
r0.9661176470588199 C
r1.032941176470582 <
r1.066352941176472 5
1*
b1000111 N
1+
#79000000
0*
0+
#79500000
r1.064470588235296 5
r1.030588235294112 <
r0.9628235294117611 C
r0.9967058823529438 J
1*
b1001000 N
1+
#80000000
0*
0+
#80500000
r0.9938823529411791 J
r0.9595294117647023 C
r1.028235294117641 <
r1.062588235294119 5
1*
b1001001 N
1+
#81000000
0*
0+
#81500000
r1.060705882352943 5
r1.02588235294117 <
r0.9562352941176435 C
r0.9910588235294144 J
1*
b1001010 N
1+
#82000000
0*
0+
#82500000
r0.9882352941176498 J
r0.9529411764705847 C
r1.0235294117647 <
r1.058823529411766 5
1*
b1001011 N
1+
#83000000
0*
0+
#83500000
r1.05694117647059 5
r1.021176470588229 <
r0.949647058823526 C
r0.9854117647058851 J
1*
b1001100 N
1+
#84000000
0*
0+
#84500000
r0.9825882352941204 J
r0.9463529411764672 C
r1.018823529411758 <
r1.055058823529414 5
1*
b1001101 N
1+
#85000000
0*
0+
#85500000
r1.053176470588237 5
r1.016470588235288 <
r0.9430588235294084 C
r0.9797647058823558 J
1*
b1001110 N
1+
#86000000
0*
0+
#86500000
r0.9769411764705911 J
r0.9397647058823496 C
r1.014117647058817 <
r1.051294117647061 5
1*
b1001111 N
1+
#87000000
0*
0+
#87500000
r1.049411764705884 5
r1.011764705882346 <
r0.9364705882352908 C
r0.9741176470588264 J
1*
b1010000 N
1+
#88000000
0*
0+
#88500000
r0.9712941176470617 J
r0.9331764705882321 C
r1.009411764705876 <
r1.047529411764708 5
1*
b1010001 N
1+
#89000000
0*
0+
#89500000
r1.045647058823531 5
r1.007058823529405 <
r0.9298823529411733 C
r0.9684705882352971 J
1*
b1010010 N
1+
#90000000
0*
0+
#90500000
r0.9656470588235324 J
r0.9265882352941145 C
r1.004705882352934 <
r1.043764705882355 5
1*
b1010011 N
1+
#91000000
0*
0+
#91500000
r1.041882352941178 5
r1.002352941176464 <
r0.9232941176470557 C
r0.9628235294117677 J
1*
b1010100 N
1+
#92000000
0*
0+
#92500000
r0.9600000000000031 J
r0.9199999999999969 C
r0.9999999999999932 <
r1.040000000000002 5
1*
b1010101 N
1+
#93000000
0*
0+
#93500000
r1.038117647058826 5
r0.9976470588235227 <
r0.9167058823529382 C
r0.9571764705882384 J
1*
b1010110 N
1+
#94000000
0*
0+
#94500000
r0.9543529411764737 J
r0.9134117647058794 C
r0.9952941176470521 <
r1.036235294117649 5
1*
b1010111 N
1+
#95000000
0*
0+
#95500000
r1.034352941176473 5
r0.9929411764705816 <
r0.9101176470588206 C
r0.9515294117647091 J
1*
b1011000 N
1+
#96000000
0*
0+
#96500000
r0.9487058823529444 J
r0.9068235294117618 C
r0.990588235294111 <
r1.032470588235296 5
1*
b1011001 N
1+
#97000000
0*
0+
#97500000
r1.03058823529412 5
r0.9882352941176404 <
r0.903529411764703 C
r0.9458823529411797 J
1*
b1011010 N
1+
#98000000
0*
0+
#98500000
r0.9430588235294151 J
r0.9002352941176442 C
r0.9858823529411699 <
r1.028705882352943 5
1*
b1011011 N
1+
#99000000
0*
0+
#99500000
r1.026823529411767 5
r0.9835294117646993 <
r0.8969411764705855 C
r0.9402352941176504 J
1*
b1011100 N
1+
#100000000
0*
0+
#100500000
r0.9374117647058857 J
r0.8936470588235267 C
r0.9811764705882288 <
r1.02494117647059 5
1*
b1011101 N
1+
#101000000
0*
0+
#101500000
r1.023058823529414 5
r0.9788235294117582 <
r0.8903529411764679 C
r0.9345882352941211 J
1*
b1011110 N
1+
#102000000
0*
0+
#102500000
r0.9317647058823564 J
r0.8870588235294091 C
r0.9764705882352877 <
r1.021176470588238 5
1*
b1011111 N
1+
#103000000
0*
0+
#103500000
r1.019294117647061 5
r0.9741176470588171 <
r0.8837647058823503 C
r0.9289411764705917 J
1*
b1100000 N
1+
#104000000
0*
0+
#104500000
r0.926117647058827 J
r0.8804705882352916 C
r0.9717647058823465 <
r1.017411764705885 5
1*
b1100001 N
1+
#105000000
0*
0+
#105500000
r1.015529411764708 5
r0.969411764705876 <
r0.8771764705882328 C
r0.9232941176470624 J
1*
b1100010 N
1+
#106000000
0*
0+
#106500000
r0.9204705882352977 J
r0.873882352941174 C
r0.9670588235294054 <
r1.013647058823532 5
1*
b1100011 N
1+
#107000000
0*
0+
#107500000
r1.011764705882355 5
r0.9647058823529349 <
r0.8705882352941152 C
r0.917647058823533 J
1*
b1100100 N
1+
#108000000
0*
0+
#108500000
r0.9148235294117684 J
r0.8672941176470564 C
r0.9623529411764643 <
r1.009882352941179 5
1*
b1100101 N
1+
#109000000
0*
0+
#109500000
r1.008000000000002 5
r0.9599999999999937 <
r0.8639999999999977 C
r0.9120000000000037 J
1*
b1100110 N
1+
#110000000
0*
0+
#110500000
r0.909176470588239 J
r0.8607058823529389 C
r0.9576470588235232 <
r1.006117647058826 5
1*
b1100111 N
1+
#111000000
0*
0+
#111500000
r1.00423529411765 5
r0.9552941176470526 <
r0.8574117647058801 C
r0.9063529411764744 J
1*
b1101000 N
1+
#112000000
0*
0+
#112500000
r0.9035294117647097 J
r0.8541176470588213 C
r0.9529411764705821 <
r1.002352941176473 5
1*
b1101001 N
1+
#113000000
0*
0+
#113500000
r1.000470588235297 5
r0.9505882352941115 <
r0.8508235294117625 C
r0.900705882352945 J
1*
b1101010 N
1+
#114000000
0*
0+
#114500000
r0.8978823529411804 J
r0.8475294117647038 C
r0.948235294117641 <
r0.9985882352941202 5
1*
b1101011 N
1+
#115000000
0*
0+
#115500000
r0.9967058823529438 5
r0.9458823529411704 <
r0.844235294117645 C
r0.8950588235294157 J
1*
b1101100 N
1+
#116000000
0*
0+
#116500000
r0.892235294117651 J
r0.8409411764705862 C
r0.9435294117646998 <
r0.9948235294117673 5
1*
b1101101 N
1+
#117000000
0*
0+
#117500000
r0.9929411764705909 5
r0.9411764705882293 <
r0.8376470588235274 C
r0.8894117647058863 J
1*
b1101110 N
1+
#118000000
0*
0+
#118500000
r0.8865882352941217 J
r0.8343529411764686 C
r0.9388235294117587 <
r0.9910588235294144 5
1*
b1101111 N
1+
#119000000
0*
0+
#119500000
r0.989176470588238 5
r0.9364705882352882 <
r0.8310588235294099 C
r0.883764705882357 J
1*
b1110000 N
1+
#120000000
0*
0+
#120500000
r0.8809411764705923 J
r0.8277647058823511 C
r0.9341176470588176 <
r0.9872941176470615 5
1*
b1110001 N
1+
#121000000
0*
0+
#121500000
r0.9854117647058851 5
r0.9317647058823471 <
r0.8244705882352923 C
r0.8781176470588277 J
1*
b1110010 N
1+
#122000000
0*
0+
#122500000
r0.875294117647063 J
r0.8211764705882335 C
r0.9294117647058765 <
r0.9835294117647086 5
1*
b1110011 N
1+
#123000000
0*
0+
#123500000
r0.9816470588235322 5
r0.9270588235294059 <
r0.8178823529411747 C
r0.8724705882352983 J
1*
b1110100 N
1+
#124000000
0*
0+
#124500000
r0.8696470588235337 J
r0.8145882352941159 C
r0.9247058823529354 <
r0.9797647058823558 5
1*
b1110101 N
1+
#125000000
0*
0+
#125500000
r0.9778823529411793 5
r0.9223529411764648 <
r0.8112941176470572 C
r0.866823529411769 J
1*
b1110110 N
1+
#126000000
0*
0+
#126500000
r0.8640000000000043 J
r0.8079999999999984 C
r0.9199999999999943 <
r0.9760000000000029 5
1*
b1110111 N
1+
#127000000
0*
0+
#127500000
r0.9741176470588264 5
r0.9176470588235237 <
r0.8047058823529396 C
r0.8611764705882397 J
1*
b1111000 N
1+
#128000000
0*
0+
#128500000
r0.858352941176475 J
r0.8014117647058808 C
r0.9152941176470532 <
r0.97223529411765 5
1*
b1111001 N
1+
#129000000
0*
0+
#129500000
r0.9703529411764735 5
r0.9129411764705826 <
r0.798117647058822 C
r0.8555294117647103 J
1*
b1111010 N
1+
#130000000
0*
0+
#130500000
r0.8527058823529456 J
r0.7948235294117633 C
r0.910588235294112 <
r0.9684705882352971 5
1*
b1111011 N
1+
#131000000
0*
0+
#131500000
r0.9665882352941206 5
r0.9082352941176415 <
r0.7915294117647045 C
r0.849882352941181 J
1*
b1111100 N
1+
#132000000
0*
0+
#132500000
r0.8470588235294163 J
r0.7882352941176457 C
r0.9058823529411709 <
r0.9647058823529442 5
1*
b1111101 N
1+
#133000000
0*
0+
#133500000
r0.9628235294117677 5
r0.9035294117647004 <
r0.7849411764705869 C
r0.8442352941176516 J
1*
b1111110 N
1+
#134000000
0*
0+
#134500000
r0.841411764705887 J
r0.7816470588235281 C
r0.9011764705882298 <
r0.9609411764705913 5
1*
b1111111 N
1+
#135000000
0*
0+
#135500000
r0.9590588235294149 5
r0.8988235294117592 <
r0.7783529411764694 C
r0.8385882352941223 J
1*
b10000000 N
1+
#136000000
0*
0+
#136500000
r0.8357647058823576 J
r0.7750588235294106 C
r0.8964705882352887 <
r0.9571764705882384 5
1*
b10000001 N
1+
#137000000
0*
0+
#137500000
r0.955294117647062 5
r0.8941176470588181 <
r0.7717647058823518 C
r0.832941176470593 J
1*
b10000010 N
1+
#138000000
0*
0+
#138500000
r0.8301176470588283 J
r0.768470588235293 C
r0.8917647058823476 <
r0.9534117647058855 5
1*
b10000011 N
1+
#139000000
0*
0+
#139500000
r0.9515294117647091 5
r0.889411764705877 <
r0.7651764705882342 C
r0.8272941176470636 J
1*
b10000100 N
1+
#140000000
0*
0+
#140500000
r0.824470588235299 J
r0.7618823529411755 C
r0.8870588235294065 <
r0.9496470588235326 5
1*
b10000101 N
1+
#141000000
0*
0+
#141500000
r0.9477647058823562 5
r0.8847058823529359 <
r0.7585882352941167 C
r0.8216470588235343 J
1*
b10000110 N
1+
#142000000
0*
0+
#142500000
r0.8188235294117696 J
r0.7552941176470579 C
r0.8823529411764653 <
r0.9458823529411797 5
1*
b10000111 N
1+
#143000000
0*
0+
#143500000
r0.9440000000000033 5
r0.8799999999999948 <
r0.7519999999999991 C
r0.8160000000000049 J
1*
b10001000 N
1+
#144000000
0*
0+
#144500000
r0.8131764705882403 J
r0.7487058823529403 C
r0.8776470588235242 <
r0.9421176470588268 5
1*
b10001001 N
1+
#145000000
0*
0+
#145500000
r0.9402352941176504 5
r0.8752941176470537 <
r0.7454117647058816 C
r0.8103529411764756 J
1*
b10001010 N
1+
#146000000
0*
0+
#146500000
r0.8075294117647109 J
r0.7421176470588228 C
r0.8729411764705831 <
r0.9383529411764739 5
1*
b10001011 N
1+
#147000000
0*
0+
#147500000
r0.9364705882352975 5
r0.8705882352941126 <
r0.738823529411764 C
r0.8047058823529463 J
1*
b10001100 N
1+
#148000000
0*
0+
#148500000
r0.8018823529411816 J
r0.7355294117647052 C
r0.868235294117642 <
r0.9345882352941211 5
1*
b10001101 N
1+
#149000000
0*
0+
#149500000
r0.9327058823529446 5
r0.8658823529411714 <
r0.7322352941176464 C
r0.7990588235294169 J
1*
b10001110 N
1+
#150000000
0*
0+
#150500000
r0.7962352941176523 J
r0.7289411764705876 C
r0.8635294117647009 <
r0.9308235294117682 5
1*
b10001111 N
1+
#151000000
0*
0+
#151500000
r0.9289411764705917 5
r0.8611764705882303 <
r0.7256470588235289 C
r0.7934117647058876 J
1*
b10010000 N
1+
#152000000
0*
0+
#152500000
r0.7905882352941229 J
r0.7223529411764701 C
r0.8588235294117598 <
r0.9270588235294153 5
1*
b10010001 N
1+
#153000000
0*
0+
#153500000
r0.9251764705882388 5
r0.8564705882352892 <
r0.7190588235294113 C
r0.7877647058823583 J
1*
b10010010 N
1+
#154000000
0*
0+
#154500000
r0.7849411764705936 J
r0.7157647058823525 C
r0.8541176470588187 <
r0.9232941176470624 5
1*
b10010011 N
1+
#155000000
0*
0+
#155500000
r0.9214117647058859 5
r0.8517647058823481 <
r0.7124705882352937 C
r0.7821176470588289 J
1*
b10010100 N
1+
#156000000
0*
0+
#156500000
r0.7792941176470642 J
r0.709176470588235 C
r0.8494117647058775 <
r0.9195294117647095 5
1*
b10010101 N
1+
#157000000
0*
0+
#157500000
r0.917647058823533 5
r0.847058823529407 <
r0.7058823529411762 C
r0.7764705882352996 J
1*
b10010110 N
1+
#158000000
0*
0+
#158500000
r0.7736470588235349 J
r0.7025882352941174 C
r0.8447058823529364 <
r0.9157647058823566 5
1*
b10010111 N
1+
#159000000
0*
0+
#159500000
r0.9138823529411801 5
r0.8423529411764659 <
r0.6992941176470586 C
r0.7708235294117702 J
1*
b10011000 N
1+
#160000000
0*
0+
#160500000
r0.7680000000000056 J
r0.6959999999999998 C
r0.8399999999999953 <
r0.9120000000000037 5
1*
b10011001 N
1+
#161000000
0*
0+
#161500000
r0.9101176470588273 5
r0.8376470588235247 <
r0.6927058823529411 C
r0.7651764705882409 J
1*
b10011010 N
1+
#162000000
0*
0+
#162500000
r0.7623529411764762 J
r0.6894117647058823 C
r0.8352941176470542 <
r0.9082352941176508 5
1*
b10011011 N
1+
#163000000
0*
0+
#163500000
r0.9063529411764744 5
r0.8329411764705836 <
r0.6861176470588235 C
r0.7595294117647116 J
1*
b10011100 N
1+
#164000000
0*
0+
#164500000
r0.7567058823529469 J
r0.6828235294117647 C
r0.8305882352941131 <
r0.9044705882352979 5
1*
b10011101 N
1+
#165000000
0*
0+
#165500000
r0.9025882352941215 5
r0.8282352941176425 <
r0.6795294117647059 C
r0.7538823529411822 J
1*
b10011110 N
1+
#166000000
0*
0+
#166500000
r0.7510588235294176 J
r0.6762352941176472 C
r0.825882352941172 <
r0.900705882352945 5
1*
b10011111 N
1+
#167000000
0*
0+
#167500000
r0.8988235294117686 5
r0.8235294117647014 <
r0.6729411764705884 C
r0.7482352941176529 J
1*
b10100000 N
1+
#168000000
0*
0+
#168500000
r0.7454117647058882 J
r0.6696470588235296 C
r0.8211764705882308 <
r0.8969411764705921 5
1*
b10100001 N
1+
#169000000
0*
0+
#169500000
r0.8950588235294157 5
r0.8188235294117603 <
r0.6663529411764708 C
r0.7425882352941235 J
1*
b10100010 N
1+
#170000000
0*
0+
#170500000
r0.7397647058823589 J
r0.663058823529412 C
r0.8164705882352897 <
r0.8931764705882392 5
1*
b10100011 N
1+
#171000000
0*
0+
#171500000
r0.8912941176470628 5
r0.8141176470588192 <
r0.6597647058823533 C
r0.7369411764705942 J
1*
b10100100 N
1+
#172000000
0*
0+
#172500000
r0.7341176470588295 J
r0.6564705882352945 C
r0.8117647058823486 <
r0.8894117647058863 5
1*
b10100101 N
1+
#173000000
0*
0+
#173500000
r0.8875294117647099 5
r0.8094117647058781 <
r0.6531764705882357 C
r0.7312941176470649 J
1*
b10100110 N
1+
#174000000
0*
0+
#174500000
r0.7284705882353002 J
r0.6498823529411769 C
r0.8070588235294075 <
r0.8856470588235335 5
1*
b10100111 N
1+
#175000000
0*
0+
#175500000
r0.883764705882357 5
r0.8047058823529369 <
r0.6465882352941181 C
r0.7256470588235355 J
1*
b10101000 N
1+
#176000000
0*
0+
#176500000
r0.7228235294117709 J
r0.6432941176470593 C
r0.8023529411764664 <
r0.8818823529411806 5
1*
b10101001 N
1+
#177000000
0*
0+
#177500000
r0.8800000000000041 5
r0.7999999999999958 <
r0.6400000000000006 C
r0.7200000000000062 J
1*
b10101010 N
1+
#178000000
0*
0+
#178500000
r0.7171764705882415 J
r0.6367058823529418 C
r0.7976470588235253 <
r0.8781176470588277 5
1*
b10101011 N
1+
#179000000
0*
0+
